layer at (0,0) size 800x600
  RenderView at (0,0) size 800x600
layer at (0,0) size 800x308
  RenderBlock {HTML} at (0,0) size 800x308
    RenderBody {BODY} at (8,16) size 784x276
      RenderBlock {P} at (0,0) size 784x44
        RenderText {#text} at (0,0) size 746x44
          text run at (0,0) width 407: "There should be no red below, just two 300\x{D7}100 pixel green "
          text run at (407,0) width 339: "rectangles of different shades, seperated by 1em of"
          text run at (0,22) width 53: "margin."
      RenderBlock {DIV} at (0,60) size 300x100 [bgcolor=#FF0000]
        RenderBlock {P} at (0,0) size 600x100
          RenderImage {IMG} at (0,0) size 300x100
          RenderText {#text} at (0,0) size 0x0
layer at (8,192) size 300x100
  RenderBlock (relative positioned) {DIV} at (0,176) size 300x100
    RenderBlock {P} at (0,0) size 600x100
      RenderImage {IMG} at (0,0) size 300x100
      RenderText {#text} at (0,0) size 0x0
      RenderText {#text} at (0,0) size 0x0
layer at (8,192) size 300x100
  RenderBlock (positioned) {SPAN} at (0,0) size 300x100 [bgcolor=#008000]
