layer at (0,0) size 800x600
  RenderView at (0,0) size 800x600
layer at (0,0) size 800x600
  RenderBlock {HTML} at (0,0) size 800x600
    RenderBody {BODY} at (8,8) size 784x576
      RenderBlock (anonymous) at (0,0) size 784x30
        RenderTextControl {INPUT} at (2,2) size 166x26
        RenderText {#text} at (0,0) size 0x0
      RenderBlock {P} at (0,46) size 784x44
        RenderText {#text} at (0,0) size 779x44
          text run at (0,0) width 779: "Tests clicking on an input element that has a value that self-destructs. If the test succeeds, there should be a blinking"
          text run at (0,22) width 142: "caret in the text field."
layer at (12,12) size 162x22
  RenderBlock {DIV} at (2,2) size 162x22
caret: position 0 of child 0 {DIV} of child 0 {INPUT} of body
