layer at (0,0) size 800x600
  RenderView at (0,0) size 800x600
layer at (0,0) size 800x600
  RenderSVGRoot {svg} at (45,0) size 385x65
    RenderSVGContainer {g} at (45,0) size 195x65
      RenderSVGPath {svg:line} at (45,0) size 10x65 [stroke={[type=SOLID] [color=#008000]}] [fill={[type=SOLID] [color=#000000]}] [x1=10.00] [y1=0.80] [x2=10.00] [y2=12.40]
      RenderSVGPath {svg:line} at (230,0) size 10x65 [stroke={[type=SOLID] [color=#008000]}] [fill={[type=SOLID] [color=#000000]}] [x1=47.40] [y1=0.80] [x2=47.40] [y2=12.40]
      RenderSVGPath {svg:rect} at (50,0) size 190x65 [fill={[type=SOLID] [color=#FF0000] [opacity=0.40]}] [x=10.00] [y=0.80] [width=37.40] [height=11.40]
    RenderSVGText {text} at (10,0) size 76x13 contains 1 chunk(s)
      RenderSVGInlineText {#text} at (0,0) size 16x13
        chunk 1 text run 1 at (10.00,10.00) startOffset 0 endOffset 1 width 6.20: "T"
        chunk 1 text run 1 at (20.00,10.00) startOffset 0 endOffset 1 width 5.60: "h"
      RenderSVGTSpan {tspan} at (0,0) size 3x13
        RenderSVGInlineText {#text} at (30,0) size 3x13
          chunk 1 text run 1 at (40.00,10.00) startOffset 0 endOffset 1 width 2.40: "i"
      RenderSVGTSpan {tspan} at (0,0) size 11x13
        RenderSVGInlineText {#text} at (32,0) size 11x13
          chunk 1 text run 1 at (42.40,10.00) startOffset 0 endOffset 3 width 10.20: "s i"
      RenderSVGInlineText {#text} at (42,0) size 6x13
        chunk 1 text run 1 at (52.60,10.00) startOffset 0 endOffset 1 width 5.00: "s"
      RenderSVGTSpan {tspan} at (0,0) size 12x13
        RenderSVGInlineText {#text} at (47,0) size 12x13
          chunk 1 text run 1 at (57.60,10.00) startOffset 0 endOffset 3 width 11.20: " a "
      RenderSVGTSpan {tspan} at (0,0) size 4x13
        RenderSVGInlineText {#text} at (58,0) size 4x13
          chunk 1 text run 1 at (68.80,10.00) startOffset 0 endOffset 1 width 2.80: "t"
      RenderSVGInlineText {#text} at (61,0) size 15x13
        chunk 1 text run 1 at (71.60,10.00) startOffset 0 endOffset 3 width 13.40: "est"
selection start: position 0 of child 0 {#text} of child 7 {text} of child 0 {svg} of document
selection end:   position 1 of child 0 {#text} of child 2 {tspan} of child 7 {text} of child 0 {svg} of document
