layer at (0,0) size 800x600
  RenderView at (0,0) size 800x600
layer at (0,0) size 800x600
  RenderSVGRoot {svg} at (0,0) size 800x600
    RenderSVGContainer {g} at (16,86) size 701x406 [transform={m=((1.00,0.00)(0.00,1.00)) t=(0.00,30.00)}]
      RenderSVGContainer {g} at (16,86) size 701x406
        RenderSVGText {text} at (10,22) size 38x11 contains 1 chunk(s)
          RenderSVGInlineText {#text} at (0,0) size 38x11
            chunk 1 text run 1 at (10.00,30.00) startOffset 0 endOffset 10 width 37.80: "SVG to fit"
        RenderSVGContainer {g} at (33,116) size 51x68 [transform={m=((1.00,0.00)(0.00,1.00)) t=(20.00,40.00)}]
          RenderSVGPath {rect} at (33,116) size 51x68 [stroke={[type=SOLID] [color=#FF0000]}] [fill={[type=SOLID] [color=#000000]}] [x=0.50] [y=0.50] [width=29.00] [height=39.00]
          RenderSVGContainer {g} at (41,133) size 34x34 [transform={m=((1.00,0.00)(0.00,1.00)) t=(0.00,5.00)}]
            RenderSVGPath {circle} at (41,133) size 34x34 [fill={[type=SOLID] [color=#FFFF00]}] [cx=15.00] [cy=15.00] [r=10.00]
            RenderSVGPath {circle} at (50,141) size 7x8 [fill={[type=SOLID] [color=#000000]}] [cx=12.00] [cy=12.00] [r=1.50]
            RenderSVGPath {circle} at (58,141) size 7x8 [fill={[type=SOLID] [color=#000000]}] [cx=17.00] [cy=12.00] [r=1.50]
            RenderSVGPath {path} at (48,155) size 21x12 [stroke={[type=SOLID] [color=#000000] [stroke width=2.00]}] [fill={[type=SOLID] [color=#000000]}] [data="M 10 19 L 15 23 L 20 19"]
        RenderSVGText {text} at (10,102) size 42x11 contains 1 chunk(s)
          RenderSVGInlineText {#text} at (0,0) size 42x11
            chunk 1 text run 1 at (10.00,110.00) startOffset 0 endOffset 10 width 42.00: "Viewport 1"
        RenderSVGContainer {g} at (16,250) size 84x50 [transform={m=((1.00,0.00)(0.00,1.00)) t=(10.00,120.00)}]
          RenderSVGPath {rect} at (16,250) size 84x50 [stroke={[type=SOLID] [color=#0000FF]}] [x=0.50] [y=0.50] [width=49.00] [height=29.00]
        RenderSVGText {text} at (10,172) size 42x11 contains 1 chunk(s)
          RenderSVGInlineText {#text} at (0,0) size 42x11
            chunk 1 text run 1 at (10.00,180.00) startOffset 0 endOffset 10 width 42.00: "Viewport 2"
        RenderSVGContainer {g} at (33,366) size 51x101 [transform={m=((1.00,0.00)(0.00,1.00)) t=(20.00,190.00)}]
          RenderSVGPath {rect} at (33,366) size 51x101 [stroke={[type=SOLID] [color=#0000FF]}] [x=0.50] [y=0.50] [width=29.00] [height=59.00]
        RenderSVGContainer {g} at (200,86) size 200x181 [transform={m=((1.00,0.00)(0.00,1.00)) t=(120.00,50.00)}]
          RenderSVGText {text} at (0,-28) size 113x11 contains 1 chunk(s)
            RenderSVGInlineText {#text} at (0,0) size 113x11
              chunk 1 text run 1 at (0.00,-20.00) startOffset 0 endOffset 36 width 112.80: "---------- meet --------------------"
          RenderSVGContainer {g} at (200,111) size 84x73
            RenderSVGText {text} at (0,-13) size 25x11 contains 1 chunk(s)
              RenderSVGInlineText {#text} at (0,0) size 25x11
                chunk 1 text run 1 at (0.00,-5.00) startOffset 0 endOffset 5 width 24.60: "xMin*"
            RenderSVGPath {rect} at (200,133) size 84x51 [stroke={[type=SOLID] [color=#0000FF]}] [x=0.50] [y=0.50] [width=49.00] [height=29.00]
            RenderSVGViewportContainer {svg} at (200,133) size 39x51
              RenderSVGPath {rect} at (200,133) size 39x51 [stroke={[type=SOLID] [color=#FF0000]}] [fill={[type=SOLID] [color=#000000]}] [x=0.50] [y=0.50] [width=29.00] [height=39.00]
              RenderSVGContainer {g} at (205,145) size 27x27 [transform={m=((1.00,0.00)(0.00,1.00)) t=(0.00,5.00)}]
                RenderSVGPath {circle} at (205,145) size 27x27 [fill={[type=SOLID] [color=#FFFF00]}] [cx=15.00] [cy=15.00] [r=10.00]
                RenderSVGPath {circle} at (211,151) size 8x8 [fill={[type=SOLID] [color=#000000]}] [cx=12.00] [cy=12.00] [r=1.50]
                RenderSVGPath {circle} at (218,151) size 7x8 [fill={[type=SOLID] [color=#000000]}] [cx=17.00] [cy=12.00] [r=1.50]
                RenderSVGPath {path} at (210,161) size 17x11 [stroke={[type=SOLID] [color=#000000] [stroke width=2.00]}] [fill={[type=SOLID] [color=#000000]}] [data="M 10 19 L 15 23 L 20 19"]
          RenderSVGContainer {g} at (316,111) size 84x73 [transform={m=((1.00,0.00)(0.00,1.00)) t=(70.00,0.00)}]
            RenderSVGText {text} at (0,-13) size 25x11 contains 1 chunk(s)
              RenderSVGInlineText {#text} at (0,0) size 25x11
                chunk 1 text run 1 at (0.00,-5.00) startOffset 0 endOffset 5 width 24.60: "xMid*"
            RenderSVGPath {rect} at (316,133) size 84x51 [stroke={[type=SOLID] [color=#0000FF]}] [x=0.50] [y=0.50] [width=49.00] [height=29.00]
            RenderSVGViewportContainer {svg} at (338,133) size 41x51
              RenderSVGPath {rect} at (338,133) size 41x51 [stroke={[type=SOLID] [color=#FF0000]}] [fill={[type=SOLID] [color=#000000]}] [x=0.50] [y=0.50] [width=29.00] [height=39.00]
              RenderSVGContainer {g} at (345,145) size 27x27 [transform={m=((1.00,0.00)(0.00,1.00)) t=(0.00,5.00)}]
                RenderSVGPath {circle} at (345,145) size 27x27 [fill={[type=SOLID] [color=#FFFF00]}] [cx=15.00] [cy=15.00] [r=10.00]
                RenderSVGPath {circle} at (351,151) size 8x8 [fill={[type=SOLID] [color=#000000]}] [cx=12.00] [cy=12.00] [r=1.50]
                RenderSVGPath {circle} at (358,151) size 6x8 [fill={[type=SOLID] [color=#000000]}] [cx=17.00] [cy=12.00] [r=1.50]
                RenderSVGPath {path} at (350,161) size 17x11 [stroke={[type=SOLID] [color=#000000] [stroke width=2.00]}] [fill={[type=SOLID] [color=#000000]}] [data="M 10 19 L 15 23 L 20 19"]
          RenderSVGContainer {g} at (200,195) size 84x72 [transform={m=((1.00,0.00)(0.00,1.00)) t=(0.00,50.00)}]
            RenderSVGText {text} at (0,-13) size 27x11 contains 1 chunk(s)
              RenderSVGInlineText {#text} at (0,0) size 27x11
                chunk 1 text run 1 at (0.00,-5.00) startOffset 0 endOffset 5 width 26.40: "xMax*"
            RenderSVGPath {rect} at (200,216) size 84x51 [stroke={[type=SOLID] [color=#0000FF]}] [x=0.50] [y=0.50] [width=49.00] [height=29.00]
            RenderSVGViewportContainer {svg} at (245,216) size 39x51
              RenderSVGPath {rect} at (245,216) size 39x51 [stroke={[type=SOLID] [color=#FF0000]}] [fill={[type=SOLID] [color=#000000]}] [x=0.50] [y=0.50] [width=29.00] [height=39.00]
              RenderSVGContainer {g} at (251,228) size 28x27 [transform={m=((1.00,0.00)(0.00,1.00)) t=(0.00,5.00)}]
                RenderSVGPath {circle} at (251,228) size 28x27 [fill={[type=SOLID] [color=#FFFF00]}] [cx=15.00] [cy=15.00] [r=10.00]
                RenderSVGPath {circle} at (258,235) size 6x7 [fill={[type=SOLID] [color=#000000]}] [cx=12.00] [cy=12.00] [r=1.50]
                RenderSVGPath {circle} at (263,235) size 7x7 [fill={[type=SOLID] [color=#000000]}] [cx=17.00] [cy=12.00] [r=1.50]
                RenderSVGPath {path} at (256,245) size 18x10 [stroke={[type=SOLID] [color=#000000] [stroke width=2.00]}] [fill={[type=SOLID] [color=#000000]}] [data="M 10 19 L 15 23 L 20 19"]
        RenderSVGContainer {g} at (500,86) size 217x148 [transform={m=((1.00,0.00)(0.00,1.00)) t=(300.00,50.00)}]
          RenderSVGText {text} at (0,-28) size 125x11 contains 1 chunk(s)
            RenderSVGInlineText {#text} at (0,0) size 125x11
              chunk 1 text run 1 at (0.00,-20.00) startOffset 0 endOffset 40 width 124.80: "---------- meet ------------------------"
          RenderSVGContainer {g} at (500,111) size 50x123
            RenderSVGText {text} at (0,-13) size 27x11 contains 1 chunk(s)
              RenderSVGInlineText {#text} at (0,0) size 27x11
                chunk 1 text run 1 at (0.00,-5.00) startOffset 0 endOffset 5 width 26.40: "*YMin"
            RenderSVGPath {rect} at (500,133) size 50x101 [stroke={[type=SOLID] [color=#0000FF]}] [x=0.50] [y=0.50] [width=29.00] [height=59.00]
            RenderSVGViewportContainer {svg} at (500,133) size 50x67
              RenderSVGPath {rect} at (500,133) size 50x67 [stroke={[type=SOLID] [color=#FF0000]}] [fill={[type=SOLID] [color=#000000]}] [x=0.50] [y=0.50] [width=29.00] [height=39.00]
              RenderSVGContainer {g} at (508,150) size 34x34 [transform={m=((1.00,0.00)(0.00,1.00)) t=(0.00,5.00)}]
                RenderSVGPath {circle} at (508,150) size 34x34 [fill={[type=SOLID] [color=#FFFF00]}] [cx=15.00] [cy=15.00] [r=10.00]
                RenderSVGPath {circle} at (516,158) size 8x7 [fill={[type=SOLID] [color=#000000]}] [cx=12.00] [cy=12.00] [r=1.50]
                RenderSVGPath {circle} at (525,158) size 7x7 [fill={[type=SOLID] [color=#000000]}] [cx=17.00] [cy=12.00] [r=1.50]
                RenderSVGPath {path} at (515,171) size 20x13 [stroke={[type=SOLID] [color=#000000] [stroke width=2.00]}] [fill={[type=SOLID] [color=#000000]}] [data="M 10 19 L 15 23 L 20 19"]
          RenderSVGContainer {g} at (583,111) size 51x123 [transform={m=((1.00,0.00)(0.00,1.00)) t=(50.00,0.00)}]
            RenderSVGText {text} at (0,-13) size 27x11 contains 1 chunk(s)
              RenderSVGInlineText {#text} at (0,0) size 27x11
                chunk 1 text run 1 at (0.00,-5.00) startOffset 0 endOffset 5 width 26.40: "*YMid"
            RenderSVGPath {rect} at (583,133) size 51x101 [stroke={[type=SOLID] [color=#0000FF]}] [x=0.50] [y=0.50] [width=29.00] [height=59.00]
            RenderSVGViewportContainer {svg} at (583,150) size 51x67
              RenderSVGPath {rect} at (583,150) size 51x67 [stroke={[type=SOLID] [color=#FF0000]}] [fill={[type=SOLID] [color=#000000]}] [x=0.50] [y=0.50] [width=29.00] [height=39.00]
              RenderSVGContainer {g} at (591,166) size 34x34 [transform={m=((1.00,0.00)(0.00,1.00)) t=(0.00,5.00)}]
                RenderSVGPath {circle} at (591,166) size 34x34 [fill={[type=SOLID] [color=#FFFF00]}] [cx=15.00] [cy=15.00] [r=10.00]
                RenderSVGPath {circle} at (600,175) size 7x7 [fill={[type=SOLID] [color=#000000]}] [cx=12.00] [cy=12.00] [r=1.50]
                RenderSVGPath {circle} at (608,175) size 7x7 [fill={[type=SOLID] [color=#000000]}] [cx=17.00] [cy=12.00] [r=1.50]
                RenderSVGPath {path} at (598,188) size 21x12 [stroke={[type=SOLID] [color=#000000] [stroke width=2.00]}] [fill={[type=SOLID] [color=#000000]}] [data="M 10 19 L 15 23 L 20 19"]
          RenderSVGContainer {g} at (666,111) size 51x123 [transform={m=((1.00,0.00)(0.00,1.00)) t=(100.00,0.00)}]
            RenderSVGText {text} at (0,-13) size 29x11 contains 1 chunk(s)
              RenderSVGInlineText {#text} at (0,0) size 29x11
                chunk 1 text run 1 at (0.00,-5.00) startOffset 0 endOffset 5 width 28.20: "*YMax"
            RenderSVGPath {rect} at (666,133) size 51x101 [stroke={[type=SOLID] [color=#0000FF]}] [x=0.50] [y=0.50] [width=29.00] [height=59.00]
            RenderSVGViewportContainer {svg} at (666,166) size 51x68
              RenderSVGPath {rect} at (666,166) size 51x68 [stroke={[type=SOLID] [color=#FF0000]}] [fill={[type=SOLID] [color=#000000]}] [x=0.50] [y=0.50] [width=29.00] [height=39.00]
              RenderSVGContainer {g} at (675,183) size 34x34 [transform={m=((1.00,0.00)(0.00,1.00)) t=(0.00,5.00)}]
                RenderSVGPath {circle} at (675,183) size 34x34 [fill={[type=SOLID] [color=#FFFF00]}] [cx=15.00] [cy=15.00] [r=10.00]
                RenderSVGPath {circle} at (683,191) size 7x8 [fill={[type=SOLID] [color=#000000]}] [cx=12.00] [cy=12.00] [r=1.50]
                RenderSVGPath {circle} at (691,191) size 8x8 [fill={[type=SOLID] [color=#000000]}] [cx=17.00] [cy=12.00] [r=1.50]
                RenderSVGPath {path} at (681,205) size 21x12 [stroke={[type=SOLID] [color=#000000] [stroke width=2.00]}] [fill={[type=SOLID] [color=#000000]}] [data="M 10 19 L 15 23 L 20 19"]
        RenderSVGContainer {g} at (200,311) size 217x148 [transform={m=((1.00,0.00)(0.00,1.00)) t=(120.00,185.00)}]
          RenderSVGText {text} at (0,-28) size 127x11 contains 1 chunk(s)
            RenderSVGInlineText {#text} at (0,0) size 127x11
              chunk 1 text run 1 at (0.00,-20.00) startOffset 0 endOffset 42 width 126.60: "---------- slice -------------------------"
          RenderSVGContainer {g} at (200,336) size 75x123
            RenderSVGText {text} at (0,-13) size 25x11 contains 1 chunk(s)
              RenderSVGInlineText {#text} at (0,0) size 25x11
                chunk 1 text run 1 at (0.00,-5.00) startOffset 0 endOffset 5 width 24.60: "xMin*"
            RenderSVGPath {rect} at (200,358) size 50x101 [stroke={[type=SOLID] [color=#0000FF]}] [x=0.50] [y=0.50] [width=29.00] [height=59.00]
            RenderSVGViewportContainer {svg} at (200,358) size 75x101
              RenderSVGPath {rect} at (200,358) size 75x101 [stroke={[type=SOLID] [color=#FF0000]}] [fill={[type=SOLID] [color=#000000]}] [x=0.50] [y=0.50] [width=29.00] [height=39.00]
              RenderSVGContainer {g} at (211,383) size 53x51 [transform={m=((1.00,0.00)(0.00,1.00)) t=(0.00,5.00)}]
                RenderSVGPath {circle} at (211,383) size 53x51 [fill={[type=SOLID] [color=#FFFF00]}] [cx=15.00] [cy=15.00] [r=10.00]
                RenderSVGPath {circle} at (225,395) size 10x12 [fill={[type=SOLID] [color=#000000]}] [cx=12.00] [cy=12.00] [r=1.50]
                RenderSVGPath {circle} at (236,395) size 13x12 [fill={[type=SOLID] [color=#000000]}] [cx=17.00] [cy=12.00] [r=1.50]
                RenderSVGPath {path} at (221,415) size 33x19 [stroke={[type=SOLID] [color=#000000] [stroke width=2.00]}] [fill={[type=SOLID] [color=#000000]}] [data="M 10 19 L 15 23 L 20 19"]
          RenderSVGContainer {g} at (270,336) size 77x123 [transform={m=((1.00,0.00)(0.00,1.00)) t=(50.00,0.00)}]
            RenderSVGText {text} at (0,-13) size 25x11 contains 1 chunk(s)
              RenderSVGInlineText {#text} at (0,0) size 25x11
                chunk 1 text run 1 at (0.00,-5.00) startOffset 0 endOffset 5 width 24.60: "xMid*"
            RenderSVGPath {rect} at (283,358) size 51x101 [stroke={[type=SOLID] [color=#0000FF]}] [x=0.50] [y=0.50] [width=29.00] [height=59.00]
            RenderSVGViewportContainer {svg} at (270,358) size 77x101
              RenderSVGPath {rect} at (270,358) size 77x101 [stroke={[type=SOLID] [color=#FF0000]}] [fill={[type=SOLID] [color=#000000]}] [x=0.50] [y=0.50] [width=29.00] [height=39.00]
              RenderSVGContainer {g} at (283,383) size 51x51 [transform={m=((1.00,0.00)(0.00,1.00)) t=(0.00,5.00)}]
                RenderSVGPath {circle} at (283,383) size 51x51 [fill={[type=SOLID] [color=#FFFF00]}] [cx=15.00] [cy=15.00] [r=10.00]
                RenderSVGPath {circle} at (295,395) size 12x12 [fill={[type=SOLID] [color=#000000]}] [cx=12.00] [cy=12.00] [r=1.50]
                RenderSVGPath {circle} at (308,395) size 11x12 [fill={[type=SOLID] [color=#000000]}] [cx=17.00] [cy=12.00] [r=1.50]
                RenderSVGPath {path} at (293,415) size 31x19 [stroke={[type=SOLID] [color=#000000] [stroke width=2.00]}] [fill={[type=SOLID] [color=#000000]}] [data="M 10 19 L 15 23 L 20 19"]
          RenderSVGContainer {g} at (341,336) size 76x123 [transform={m=((1.00,0.00)(0.00,1.00)) t=(100.00,0.00)}]
            RenderSVGText {text} at (0,-13) size 27x11 contains 1 chunk(s)
              RenderSVGInlineText {#text} at (0,0) size 27x11
                chunk 1 text run 1 at (0.00,-5.00) startOffset 0 endOffset 5 width 26.40: "xMax*"
            RenderSVGPath {rect} at (366,358) size 51x101 [stroke={[type=SOLID] [color=#0000FF]}] [x=0.50] [y=0.50] [width=29.00] [height=59.00]
            RenderSVGViewportContainer {svg} at (341,358) size 76x101
              RenderSVGPath {rect} at (341,358) size 76x101 [stroke={[type=SOLID] [color=#FF0000]}] [fill={[type=SOLID] [color=#000000]}] [x=0.50] [y=0.50] [width=29.00] [height=39.00]
              RenderSVGContainer {g} at (353,383) size 52x51 [transform={m=((1.00,0.00)(0.00,1.00)) t=(0.00,5.00)}]
                RenderSVGPath {circle} at (353,383) size 52x51 [fill={[type=SOLID] [color=#FFFF00]}] [cx=15.00] [cy=15.00] [r=10.00]
                RenderSVGPath {circle} at (366,395) size 11x12 [fill={[type=SOLID] [color=#000000]}] [cx=12.00] [cy=12.00] [r=1.50]
                RenderSVGPath {circle} at (378,395) size 12x12 [fill={[type=SOLID] [color=#000000]}] [cx=17.00] [cy=12.00] [r=1.50]
                RenderSVGPath {path} at (363,415) size 32x19 [stroke={[type=SOLID] [color=#000000] [stroke width=2.00]}] [fill={[type=SOLID] [color=#000000]}] [data="M 10 19 L 15 23 L 20 19"]
        RenderSVGContainer {g} at (500,311) size 200x181 [transform={m=((1.00,0.00)(0.00,1.00)) t=(300.00,185.00)}]
          RenderSVGText {text} at (0,-28) size 115x11 contains 1 chunk(s)
            RenderSVGInlineText {#text} at (0,0) size 115x11
              chunk 1 text run 1 at (0.00,-20.00) startOffset 0 endOffset 38 width 114.60: "---------- slice ---------------------"
          RenderSVGContainer {g} at (500,336) size 84x134
            RenderSVGText {text} at (0,-13) size 27x11 contains 1 chunk(s)
              RenderSVGInlineText {#text} at (0,0) size 27x11
                chunk 1 text run 1 at (0.00,-5.00) startOffset 0 endOffset 5 width 26.40: "*YMin"
            RenderSVGPath {rect} at (500,358) size 84x51 [stroke={[type=SOLID] [color=#0000FF]}] [x=0.50] [y=0.50] [width=49.00] [height=29.00]
            RenderSVGViewportContainer {svg} at (500,358) size 84x112
              RenderSVGPath {rect} at (500,358) size 84x112 [stroke={[type=SOLID] [color=#FF0000]}] [fill={[type=SOLID] [color=#000000]}] [x=0.50] [y=0.50] [width=29.00] [height=39.00]
              RenderSVGContainer {g} at (513,385) size 57x57 [transform={m=((1.00,0.00)(0.00,1.00)) t=(0.00,5.00)}]
                RenderSVGPath {circle} at (513,385) size 57x57 [fill={[type=SOLID] [color=#FFFF00]}] [cx=15.00] [cy=15.00] [r=10.00]
                RenderSVGPath {circle} at (526,400) size 14x12 [fill={[type=SOLID] [color=#000000]}] [cx=12.00] [cy=12.00] [r=1.50]
                RenderSVGPath {circle} at (541,400) size 13x12 [fill={[type=SOLID] [color=#000000]}] [cx=17.00] [cy=12.00] [r=1.50]
                RenderSVGPath {path} at (525,421) size 34x21 [stroke={[type=SOLID] [color=#000000] [stroke width=2.00]}] [fill={[type=SOLID] [color=#000000]}] [data="M 10 19 L 15 23 L 20 19"]
          RenderSVGContainer {g} at (616,326) size 84x114 [transform={m=((1.00,0.00)(0.00,1.00)) t=(70.00,0.00)}]
            RenderSVGText {text} at (0,-13) size 27x11 contains 1 chunk(s)
              RenderSVGInlineText {#text} at (0,0) size 27x11
                chunk 1 text run 1 at (0.00,-5.00) startOffset 0 endOffset 5 width 26.40: "*YMid"
            RenderSVGPath {rect} at (616,358) size 84x51 [stroke={[type=SOLID] [color=#0000FF]}] [x=0.50] [y=0.50] [width=49.00] [height=29.00]
            RenderSVGViewportContainer {svg} at (616,326) size 84x114
              RenderSVGPath {rect} at (616,326) size 84x114 [stroke={[type=SOLID] [color=#FF0000]}] [fill={[type=SOLID] [color=#000000]}] [x=0.50] [y=0.50] [width=29.00] [height=39.00]
              RenderSVGContainer {g} at (630,355) size 57x57 [transform={m=((1.00,0.00)(0.00,1.00)) t=(0.00,5.00)}]
                RenderSVGPath {circle} at (630,355) size 57x57 [fill={[type=SOLID] [color=#FFFF00]}] [cx=15.00] [cy=15.00] [r=10.00]
                RenderSVGPath {circle} at (643,368) size 14x14 [fill={[type=SOLID] [color=#000000]}] [cx=12.00] [cy=12.00] [r=1.50]
                RenderSVGPath {circle} at (658,368) size 12x14 [fill={[type=SOLID] [color=#000000]}] [cx=17.00] [cy=12.00] [r=1.50]
                RenderSVGPath {path} at (641,391) size 34x21 [stroke={[type=SOLID] [color=#000000] [stroke width=2.00]}] [fill={[type=SOLID] [color=#000000]}] [data="M 10 19 L 15 23 L 20 19"]
          RenderSVGContainer {g} at (500,380) size 84x114 [transform={m=((1.00,0.00)(0.00,1.00)) t=(0.00,50.00)}]
            RenderSVGText {text} at (0,-13) size 29x11 contains 1 chunk(s)
              RenderSVGInlineText {#text} at (0,0) size 29x11
                chunk 1 text run 1 at (0.00,-5.00) startOffset 0 endOffset 5 width 28.20: "*YMax"
            RenderSVGPath {rect} at (500,441) size 84x51 [stroke={[type=SOLID] [color=#0000FF]}] [x=0.50] [y=0.50] [width=49.00] [height=29.00]
            RenderSVGViewportContainer {svg} at (500,380) size 84x114
              RenderSVGPath {rect} at (500,380) size 84x114 [stroke={[type=SOLID] [color=#FF0000]}] [fill={[type=SOLID] [color=#000000]}] [x=0.50] [y=0.50] [width=29.00] [height=39.00]
              RenderSVGContainer {g} at (513,408) size 57x57 [transform={m=((1.00,0.00)(0.00,1.00)) t=(0.00,5.00)}]
                RenderSVGPath {circle} at (513,408) size 57x57 [fill={[type=SOLID] [color=#FFFF00]}] [cx=15.00] [cy=15.00] [r=10.00]
                RenderSVGPath {circle} at (526,421) size 14x13 [fill={[type=SOLID] [color=#000000]}] [cx=12.00] [cy=12.00] [r=1.50]
                RenderSVGPath {circle} at (541,421) size 13x13 [fill={[type=SOLID] [color=#000000]}] [cx=17.00] [cy=12.00] [r=1.50]
                RenderSVGPath {path} at (525,443) size 34x22 [stroke={[type=SOLID] [color=#000000] [stroke width=2.00]}] [fill={[type=SOLID] [color=#000000]}] [data="M 10 19 L 15 23 L 20 19"]
    RenderSVGText {text} at (10,303) size 269x48 contains 1 chunk(s)
      RenderSVGInlineText {#text} at (0,0) size 269x48
        chunk 1 text run 1 at (10.00,340.00) startOffset 0 endOffset 16 width 268.20: "$Revision: 1.6 $"
    RenderSVGPath {rect} at (0,0) size 800x600 [stroke={[type=SOLID] [color=#000000]}] [x=1.00] [y=1.00] [width=478.00] [height=358.00]
    RenderSVGHiddenContainer {defs} at (0,0) size 0x0
