layer at (0,0) size 480x360
  RenderView at (0,0) size 480x360
layer at (0,0) size 480x360
  RenderSVGRoot {svg} at (0,0) size 480x360
    RenderSVGContainer {g} at (19,39) size 442x248
      RenderSVGContainer {g} at (19,39) size 202x248
        RenderSVGPath {circle} at (49,69) size 142x142 [stroke={[type=SOLID] [color=#3366EE]}] [cx=120.00] [cy=140.00] [r=70.00]
        RenderSVGPath {circle} at (79,99) size 82x82 [stroke={[type=SOLID] [color=#000000]}] [cx=120.00] [cy=140.00] [r=40.00]
        RenderSVGPath {circle} at (49,69) size 142x142 [stroke={[type=SOLID] [color=#000000]}] [cx=120.00] [cy=140.00] [r=70.00]
        RenderSVGPath {circle} at (19,39) size 202x202 [stroke={[type=SOLID] [color=#000000]}] [cx=120.00] [cy=140.00] [r=100.00]
        RenderSVGText {text} at (70,252) size 99x35 contains 1 chunk(s)
          RenderSVGInlineText {#text} at (0,0) size 99x35
            chunk 1 text run 1 at (70.00,280.00) startOffset 0 endOffset 7 width 99.00: "anim. 1"
      RenderSVGContainer {g} at (259,39) size 202x248
        RenderSVGPath {circle} at (289,69) size 142x142 [stroke={[type=SOLID] [color=#EE33AA]}] [cx=360.00] [cy=140.00] [r=70.00]
        RenderSVGPath {circle} at (319,99) size 82x82 [stroke={[type=SOLID] [color=#000000]}] [cx=360.00] [cy=140.00] [r=40.00]
        RenderSVGPath {circle} at (289,69) size 142x142 [stroke={[type=SOLID] [color=#000000]}] [cx=360.00] [cy=140.00] [r=70.00]
        RenderSVGPath {circle} at (259,39) size 202x202 [stroke={[type=SOLID] [color=#000000]}] [cx=360.00] [cy=140.00] [r=100.00]
        RenderSVGText {text} at (310,252) size 99x35 contains 1 chunk(s)
          RenderSVGInlineText {#text} at (0,0) size 99x35
            chunk 1 text run 1 at (310.00,280.00) startOffset 0 endOffset 7 width 99.00: "anim. 2"
    RenderSVGText {text} at (10,304) size 264x45 contains 1 chunk(s)
      RenderSVGInlineText {#text} at (0,0) size 264x45
        chunk 1 text run 1 at (10.00,340.00) startOffset 0 endOffset 16 width 264.00: "$Revision: 1.7 $"
    RenderSVGPath {rect} at (0,0) size 480x360 [stroke={[type=SOLID] [color=#000000]}] [x=1.00] [y=1.00] [width=478.00] [height=358.00]
