layer at (0,0) size 480x360
  RenderView at (0,0) size 480x360
layer at (0,0) size 480x360
  RenderSVGRoot {svg} at (0,0) size 480x360
    RenderSVGText {text} at (131,12) size 218x23 contains 1 chunk(s)
      RenderSVGInlineText {#text} at (0,0) size 218x23
        chunk 1 (middle anchor) text run 1 at (131.00,30.00) startOffset 0 endOffset 27 width 218.00: "Radial gradient focal point"
    RenderSVGHiddenContainer {defs} at (0,0) size 0x0
      RenderSVGContainer {g} at (0,0) size 100x60
        RenderSVGPath {rect} at (0,0) size 100x60 [fill={[type=SOLID] [color=#FFFF00]}] [x=0.00] [y=0.00] [width=100.00] [height=60.00]
        RenderSVGPath {rect} at (0,0) size 10x60 [fill={[type=SOLID] [color=#FFD700]}] [x=0.00] [y=0.00] [width=10.00] [height=60.00]
        RenderSVGPath {rect} at (15,0) size 10x60 [fill={[type=SOLID] [color=#FFA500]}] [x=15.00] [y=0.00] [width=10.00] [height=60.00]
        RenderSVGPath {rect} at (30,0) size 10x60 [fill={[type=SOLID] [color=#FF0000]}] [x=30.00] [y=0.00] [width=10.00] [height=60.00]
        RenderSVGPath {rect} at (45,0) size 10x60 [fill={[type=SOLID] [color=#FFD700]}] [x=45.00] [y=0.00] [width=10.00] [height=60.00]
        RenderSVGPath {rect} at (60,0) size 10x60 [fill={[type=SOLID] [color=#FF0000]}] [x=60.00] [y=0.00] [width=10.00] [height=60.00]
        RenderSVGPath {rect} at (75,0) size 10x60 [fill={[type=SOLID] [color=#FFA500]}] [x=75.00] [y=0.00] [width=10.00] [height=60.00]
        RenderSVGPath {rect} at (90,0) size 10x60 [fill={[type=SOLID] [color=#FFD700]}] [x=90.00] [y=0.00] [width=10.00] [height=60.00]
        RenderSVGPath {rect} at (0,0) size 100x60 [fill={[type=SOLID] [color=#000000]}] [x=0.00] [y=0.00] [width=100.00] [height=60.00]
    RenderSVGHiddenContainer {defs} at (0,0) size 0x0
      RenderSVGResourceRadialGradient {radialGradient} [id="grad1a"] [gradientUnits=objectBoundingBox] [center=(0.10,0.10)] [focal=(0,0)] [radius=0.75]
        RenderSVGGradientStop {stop} [offset=0.00] [color=#00000000]
        RenderSVGGradientStop {stop} [offset=0.50] [color=#00008B]
        RenderSVGGradientStop {stop} [offset=1.00] [color=#00000000]
      RenderSVGResourceRadialGradient {radialGradient} [id="grad2a"] [gradientUnits=objectBoundingBox] [center=(0.10,0.10)] [focal=(0.17,0)] [radius=0.75]
        RenderSVGGradientStop {stop} [offset=0.00] [color=#00000000]
        RenderSVGGradientStop {stop} [offset=0.50] [color=#00008B]
        RenderSVGGradientStop {stop} [offset=1.00] [color=#00000000]
      RenderSVGResourceRadialGradient {radialGradient} [id="grad4a"] [gradientUnits=objectBoundingBox] [center=(0.10,0.10)] [focal=(0.50,0)] [radius=0.75]
        RenderSVGGradientStop {stop} [offset=0.00] [color=#00000000]
        RenderSVGGradientStop {stop} [offset=0.50] [color=#00008B]
        RenderSVGGradientStop {stop} [offset=1.00] [color=#00000000]
      RenderSVGResourceRadialGradient {radialGradient} [id="grad6a"] [gradientUnits=objectBoundingBox] [center=(0.10,0.10)] [focal=(0.83,0)] [radius=0.75]
        RenderSVGGradientStop {stop} [offset=0.00] [color=#00000000]
        RenderSVGGradientStop {stop} [offset=0.50] [color=#00008B]
        RenderSVGGradientStop {stop} [offset=1.00] [color=#00000000]
      RenderSVGResourceRadialGradient {radialGradient} [id="grad1b"] [gradientUnits=objectBoundingBox] [center=(0.10,0.10)] [focal=(0,0.25)] [radius=0.75]
        RenderSVGGradientStop {stop} [offset=0.00] [color=#00000000]
        RenderSVGGradientStop {stop} [offset=0.50] [color=#00008B]
        RenderSVGGradientStop {stop} [offset=1.00] [color=#00000000]
      RenderSVGResourceRadialGradient {radialGradient} [id="grad2b"] [gradientUnits=objectBoundingBox] [center=(0.10,0.10)] [focal=(0.17,0.25)] [radius=0.75]
        RenderSVGGradientStop {stop} [offset=0.00] [color=#00000000]
        RenderSVGGradientStop {stop} [offset=0.50] [color=#00008B]
        RenderSVGGradientStop {stop} [offset=1.00] [color=#00000000]
      RenderSVGResourceRadialGradient {radialGradient} [id="grad4b"] [gradientUnits=objectBoundingBox] [center=(0.10,0.10)] [focal=(0.50,0.25)] [radius=0.75]
        RenderSVGGradientStop {stop} [offset=0.00] [color=#00000000]
        RenderSVGGradientStop {stop} [offset=0.50] [color=#00008B]
        RenderSVGGradientStop {stop} [offset=1.00] [color=#00000000]
      RenderSVGResourceRadialGradient {radialGradient} [id="grad6b"] [gradientUnits=objectBoundingBox] [center=(0.10,0.10)] [focal=(0.83,0.25)] [radius=0.75]
        RenderSVGGradientStop {stop} [offset=0.00] [color=#00000000]
        RenderSVGGradientStop {stop} [offset=0.50] [color=#00008B]
        RenderSVGGradientStop {stop} [offset=1.00] [color=#00000000]
      RenderSVGResourceRadialGradient {radialGradient} [id="grad1c"] [gradientUnits=objectBoundingBox] [center=(0.10,0.10)] [focal=(0,0.50)] [radius=0.75]
        RenderSVGGradientStop {stop} [offset=0.00] [color=#00000000]
        RenderSVGGradientStop {stop} [offset=0.50] [color=#00008B]
        RenderSVGGradientStop {stop} [offset=1.00] [color=#00000000]
      RenderSVGResourceRadialGradient {radialGradient} [id="grad2c"] [gradientUnits=objectBoundingBox] [center=(0.10,0.10)] [focal=(0.17,0.50)] [radius=0.75]
        RenderSVGGradientStop {stop} [offset=0.00] [color=#00000000]
        RenderSVGGradientStop {stop} [offset=0.50] [color=#00008B]
        RenderSVGGradientStop {stop} [offset=1.00] [color=#00000000]
      RenderSVGResourceRadialGradient {radialGradient} [id="grad4c"] [gradientUnits=objectBoundingBox] [center=(0.10,0.10)] [focal=(0.50,0.50)] [radius=0.75]
        RenderSVGGradientStop {stop} [offset=0.00] [color=#00000000]
        RenderSVGGradientStop {stop} [offset=0.50] [color=#00008B]
        RenderSVGGradientStop {stop} [offset=1.00] [color=#00000000]
      RenderSVGResourceRadialGradient {radialGradient} [id="grad6c"] [gradientUnits=objectBoundingBox] [center=(0.10,0.10)] [focal=(0.75,0.46)] [radius=0.75]
        RenderSVGGradientStop {stop} [offset=0.00] [color=#00000000]
        RenderSVGGradientStop {stop} [offset=0.50] [color=#00008B]
        RenderSVGGradientStop {stop} [offset=1.00] [color=#00000000]
      RenderSVGResourceRadialGradient {radialGradient} [id="grad1d"] [gradientUnits=objectBoundingBox] [center=(0.10,0.10)] [focal=(0,0.75)] [radius=0.75]
        RenderSVGGradientStop {stop} [offset=0.00] [color=#00000000]
        RenderSVGGradientStop {stop} [offset=0.50] [color=#00008B]
        RenderSVGGradientStop {stop} [offset=1.00] [color=#00000000]
      RenderSVGResourceRadialGradient {radialGradient} [id="grad2d"] [gradientUnits=objectBoundingBox] [center=(0.10,0.10)] [focal=(0.17,0.75)] [radius=0.75]
        RenderSVGGradientStop {stop} [offset=0.00] [color=#00000000]
        RenderSVGGradientStop {stop} [offset=0.50] [color=#00008B]
        RenderSVGGradientStop {stop} [offset=1.00] [color=#00000000]
      RenderSVGResourceRadialGradient {radialGradient} [id="grad4d"] [gradientUnits=objectBoundingBox] [center=(0.10,0.10)] [focal=(0.49,0.73)] [radius=0.75]
        RenderSVGGradientStop {stop} [offset=0.00] [color=#00000000]
        RenderSVGGradientStop {stop} [offset=0.50] [color=#00008B]
        RenderSVGGradientStop {stop} [offset=1.00] [color=#00000000]
      RenderSVGResourceRadialGradient {radialGradient} [id="grad6d"] [gradientUnits=objectBoundingBox] [center=(0.10,0.10)] [focal=(0.66,0.59)] [radius=0.75]
        RenderSVGGradientStop {stop} [offset=0.00] [color=#00000000]
        RenderSVGGradientStop {stop} [offset=0.50] [color=#00008B]
        RenderSVGGradientStop {stop} [offset=1.00] [color=#00000000]
    RenderSVGContainer {g} at (17,44) size 439x257
      RenderSVGContainer {use} at (17,44) size 101x62
        RenderSVGContainer {g} at (16,44) size 103x62 [transform={m=((1.00,0.00)(0.00,1.00)) t=(17.50,45.00)}]
          RenderSVGContainer {g} at (16,44) size 103x62
            RenderSVGPath {rect} at (16,44) size 103x62 [stroke={[type=SOLID] [color=#000000] [stroke width=0.50]}] [fill={[type=SOLID] [color=#FFFF00]}] [x=0.00] [y=0.00] [width=100.00] [height=60.00]
            RenderSVGPath {rect} at (16,44) size 13x62 [stroke={[type=SOLID] [color=#000000] [stroke width=0.50]}] [fill={[type=SOLID] [color=#FFD700]}] [x=0.00] [y=0.00] [width=10.00] [height=60.00]
            RenderSVGPath {rect} at (31,44) size 13x62 [stroke={[type=SOLID] [color=#000000] [stroke width=0.50]}] [fill={[type=SOLID] [color=#FFA500]}] [x=15.00] [y=0.00] [width=10.00] [height=60.00]
            RenderSVGPath {rect} at (46,44) size 13x62 [stroke={[type=SOLID] [color=#000000] [stroke width=0.50]}] [fill={[type=SOLID] [color=#FF0000]}] [x=30.00] [y=0.00] [width=10.00] [height=60.00]
            RenderSVGPath {rect} at (61,44) size 13x62 [stroke={[type=SOLID] [color=#000000] [stroke width=0.50]}] [fill={[type=SOLID] [color=#FFD700]}] [x=45.00] [y=0.00] [width=10.00] [height=60.00]
            RenderSVGPath {rect} at (76,44) size 13x62 [stroke={[type=SOLID] [color=#000000] [stroke width=0.50]}] [fill={[type=SOLID] [color=#FF0000]}] [x=60.00] [y=0.00] [width=10.00] [height=60.00]
            RenderSVGPath {rect} at (91,44) size 13x62 [stroke={[type=SOLID] [color=#000000] [stroke width=0.50]}] [fill={[type=SOLID] [color=#FFA500]}] [x=75.00] [y=0.00] [width=10.00] [height=60.00]
            RenderSVGPath {rect} at (106,44) size 13x62 [stroke={[type=SOLID] [color=#000000] [stroke width=0.50]}] [fill={[type=SOLID] [color=#FFD700]}] [x=90.00] [y=0.00] [width=10.00] [height=60.00]
            RenderSVGPath {rect} at (16,44) size 103x62 [stroke={[type=SOLID] [color=#000000] [stroke width=0.50]}] [fill={[type=RADIAL-GRADIENT] [id="grad1a"]}] [x=0.00] [y=0.00] [width=100.00] [height=60.00]
      RenderSVGContainer {use} at (129,44) size 102x62
        RenderSVGContainer {g} at (129,44) size 102x62 [transform={m=((1.00,0.00)(0.00,1.00)) t=(130.00,45.00)}]
          RenderSVGContainer {g} at (129,44) size 102x62
            RenderSVGPath {rect} at (129,44) size 102x62 [stroke={[type=SOLID] [color=#000000] [stroke width=0.50]}] [fill={[type=SOLID] [color=#FFFF00]}] [x=0.00] [y=0.00] [width=100.00] [height=60.00]
            RenderSVGPath {rect} at (129,44) size 12x62 [stroke={[type=SOLID] [color=#000000] [stroke width=0.50]}] [fill={[type=SOLID] [color=#FFD700]}] [x=0.00] [y=0.00] [width=10.00] [height=60.00]
            RenderSVGPath {rect} at (144,44) size 12x62 [stroke={[type=SOLID] [color=#000000] [stroke width=0.50]}] [fill={[type=SOLID] [color=#FFA500]}] [x=15.00] [y=0.00] [width=10.00] [height=60.00]
            RenderSVGPath {rect} at (159,44) size 12x62 [stroke={[type=SOLID] [color=#000000] [stroke width=0.50]}] [fill={[type=SOLID] [color=#FF0000]}] [x=30.00] [y=0.00] [width=10.00] [height=60.00]
            RenderSVGPath {rect} at (174,44) size 12x62 [stroke={[type=SOLID] [color=#000000] [stroke width=0.50]}] [fill={[type=SOLID] [color=#FFD700]}] [x=45.00] [y=0.00] [width=10.00] [height=60.00]
            RenderSVGPath {rect} at (189,44) size 12x62 [stroke={[type=SOLID] [color=#000000] [stroke width=0.50]}] [fill={[type=SOLID] [color=#FF0000]}] [x=60.00] [y=0.00] [width=10.00] [height=60.00]
            RenderSVGPath {rect} at (204,44) size 12x62 [stroke={[type=SOLID] [color=#000000] [stroke width=0.50]}] [fill={[type=SOLID] [color=#FFA500]}] [x=75.00] [y=0.00] [width=10.00] [height=60.00]
            RenderSVGPath {rect} at (219,44) size 12x62 [stroke={[type=SOLID] [color=#000000] [stroke width=0.50]}] [fill={[type=SOLID] [color=#FFD700]}] [x=90.00] [y=0.00] [width=10.00] [height=60.00]
            RenderSVGPath {rect} at (129,44) size 102x62 [stroke={[type=SOLID] [color=#000000] [stroke width=0.50]}] [fill={[type=RADIAL-GRADIENT] [id="grad2a"]}] [x=0.00] [y=0.00] [width=100.00] [height=60.00]
      RenderSVGContainer {use} at (242,44) size 101x62
        RenderSVGContainer {g} at (241,44) size 103x62 [transform={m=((1.00,0.00)(0.00,1.00)) t=(242.50,45.00)}]
          RenderSVGContainer {g} at (241,44) size 103x62
            RenderSVGPath {rect} at (241,44) size 103x62 [stroke={[type=SOLID] [color=#000000] [stroke width=0.50]}] [fill={[type=SOLID] [color=#FFFF00]}] [x=0.00] [y=0.00] [width=100.00] [height=60.00]
            RenderSVGPath {rect} at (241,44) size 13x62 [stroke={[type=SOLID] [color=#000000] [stroke width=0.50]}] [fill={[type=SOLID] [color=#FFD700]}] [x=0.00] [y=0.00] [width=10.00] [height=60.00]
            RenderSVGPath {rect} at (256,44) size 13x62 [stroke={[type=SOLID] [color=#000000] [stroke width=0.50]}] [fill={[type=SOLID] [color=#FFA500]}] [x=15.00] [y=0.00] [width=10.00] [height=60.00]
            RenderSVGPath {rect} at (271,44) size 13x62 [stroke={[type=SOLID] [color=#000000] [stroke width=0.50]}] [fill={[type=SOLID] [color=#FF0000]}] [x=30.00] [y=0.00] [width=10.00] [height=60.00]
            RenderSVGPath {rect} at (286,44) size 13x62 [stroke={[type=SOLID] [color=#000000] [stroke width=0.50]}] [fill={[type=SOLID] [color=#FFD700]}] [x=45.00] [y=0.00] [width=10.00] [height=60.00]
            RenderSVGPath {rect} at (301,44) size 13x62 [stroke={[type=SOLID] [color=#000000] [stroke width=0.50]}] [fill={[type=SOLID] [color=#FF0000]}] [x=60.00] [y=0.00] [width=10.00] [height=60.00]
            RenderSVGPath {rect} at (316,44) size 13x62 [stroke={[type=SOLID] [color=#000000] [stroke width=0.50]}] [fill={[type=SOLID] [color=#FFA500]}] [x=75.00] [y=0.00] [width=10.00] [height=60.00]
            RenderSVGPath {rect} at (331,44) size 13x62 [stroke={[type=SOLID] [color=#000000] [stroke width=0.50]}] [fill={[type=SOLID] [color=#FFD700]}] [x=90.00] [y=0.00] [width=10.00] [height=60.00]
            RenderSVGPath {rect} at (241,44) size 103x62 [stroke={[type=SOLID] [color=#000000] [stroke width=0.50]}] [fill={[type=RADIAL-GRADIENT] [id="grad4a"]}] [x=0.00] [y=0.00] [width=100.00] [height=60.00]
      RenderSVGContainer {use} at (354,44) size 102x62
        RenderSVGContainer {g} at (354,44) size 102x62 [transform={m=((1.00,0.00)(0.00,1.00)) t=(355.00,45.00)}]
          RenderSVGContainer {g} at (354,44) size 102x62
            RenderSVGPath {rect} at (354,44) size 102x62 [stroke={[type=SOLID] [color=#000000] [stroke width=0.50]}] [fill={[type=SOLID] [color=#FFFF00]}] [x=0.00] [y=0.00] [width=100.00] [height=60.00]
            RenderSVGPath {rect} at (354,44) size 12x62 [stroke={[type=SOLID] [color=#000000] [stroke width=0.50]}] [fill={[type=SOLID] [color=#FFD700]}] [x=0.00] [y=0.00] [width=10.00] [height=60.00]
            RenderSVGPath {rect} at (369,44) size 12x62 [stroke={[type=SOLID] [color=#000000] [stroke width=0.50]}] [fill={[type=SOLID] [color=#FFA500]}] [x=15.00] [y=0.00] [width=10.00] [height=60.00]
            RenderSVGPath {rect} at (384,44) size 12x62 [stroke={[type=SOLID] [color=#000000] [stroke width=0.50]}] [fill={[type=SOLID] [color=#FF0000]}] [x=30.00] [y=0.00] [width=10.00] [height=60.00]
            RenderSVGPath {rect} at (399,44) size 12x62 [stroke={[type=SOLID] [color=#000000] [stroke width=0.50]}] [fill={[type=SOLID] [color=#FFD700]}] [x=45.00] [y=0.00] [width=10.00] [height=60.00]
            RenderSVGPath {rect} at (414,44) size 12x62 [stroke={[type=SOLID] [color=#000000] [stroke width=0.50]}] [fill={[type=SOLID] [color=#FF0000]}] [x=60.00] [y=0.00] [width=10.00] [height=60.00]
            RenderSVGPath {rect} at (429,44) size 12x62 [stroke={[type=SOLID] [color=#000000] [stroke width=0.50]}] [fill={[type=SOLID] [color=#FFA500]}] [x=75.00] [y=0.00] [width=10.00] [height=60.00]
            RenderSVGPath {rect} at (444,44) size 12x62 [stroke={[type=SOLID] [color=#000000] [stroke width=0.50]}] [fill={[type=SOLID] [color=#FFD700]}] [x=90.00] [y=0.00] [width=10.00] [height=60.00]
            RenderSVGPath {rect} at (354,44) size 102x62 [stroke={[type=SOLID] [color=#000000] [stroke width=0.50]}] [fill={[type=RADIAL-GRADIENT] [id="grad6a"]}] [x=0.00] [y=0.00] [width=100.00] [height=60.00]
      RenderSVGContainer {use} at (17,109) size 101x62
        RenderSVGContainer {g} at (16,109) size 103x62 [transform={m=((1.00,0.00)(0.00,1.00)) t=(17.50,110.00)}]
          RenderSVGContainer {g} at (16,109) size 103x62
            RenderSVGPath {rect} at (16,109) size 103x62 [stroke={[type=SOLID] [color=#000000] [stroke width=0.50]}] [fill={[type=SOLID] [color=#FFFF00]}] [x=0.00] [y=0.00] [width=100.00] [height=60.00]
            RenderSVGPath {rect} at (16,109) size 13x62 [stroke={[type=SOLID] [color=#000000] [stroke width=0.50]}] [fill={[type=SOLID] [color=#FFD700]}] [x=0.00] [y=0.00] [width=10.00] [height=60.00]
            RenderSVGPath {rect} at (31,109) size 13x62 [stroke={[type=SOLID] [color=#000000] [stroke width=0.50]}] [fill={[type=SOLID] [color=#FFA500]}] [x=15.00] [y=0.00] [width=10.00] [height=60.00]
            RenderSVGPath {rect} at (46,109) size 13x62 [stroke={[type=SOLID] [color=#000000] [stroke width=0.50]}] [fill={[type=SOLID] [color=#FF0000]}] [x=30.00] [y=0.00] [width=10.00] [height=60.00]
            RenderSVGPath {rect} at (61,109) size 13x62 [stroke={[type=SOLID] [color=#000000] [stroke width=0.50]}] [fill={[type=SOLID] [color=#FFD700]}] [x=45.00] [y=0.00] [width=10.00] [height=60.00]
            RenderSVGPath {rect} at (76,109) size 13x62 [stroke={[type=SOLID] [color=#000000] [stroke width=0.50]}] [fill={[type=SOLID] [color=#FF0000]}] [x=60.00] [y=0.00] [width=10.00] [height=60.00]
            RenderSVGPath {rect} at (91,109) size 13x62 [stroke={[type=SOLID] [color=#000000] [stroke width=0.50]}] [fill={[type=SOLID] [color=#FFA500]}] [x=75.00] [y=0.00] [width=10.00] [height=60.00]
            RenderSVGPath {rect} at (106,109) size 13x62 [stroke={[type=SOLID] [color=#000000] [stroke width=0.50]}] [fill={[type=SOLID] [color=#FFD700]}] [x=90.00] [y=0.00] [width=10.00] [height=60.00]
            RenderSVGPath {rect} at (16,109) size 103x62 [stroke={[type=SOLID] [color=#000000] [stroke width=0.50]}] [fill={[type=RADIAL-GRADIENT] [id="grad1b"]}] [x=0.00] [y=0.00] [width=100.00] [height=60.00]
      RenderSVGContainer {use} at (129,109) size 102x62
        RenderSVGContainer {g} at (129,109) size 102x62 [transform={m=((1.00,0.00)(0.00,1.00)) t=(130.00,110.00)}]
          RenderSVGContainer {g} at (129,109) size 102x62
            RenderSVGPath {rect} at (129,109) size 102x62 [stroke={[type=SOLID] [color=#000000] [stroke width=0.50]}] [fill={[type=SOLID] [color=#FFFF00]}] [x=0.00] [y=0.00] [width=100.00] [height=60.00]
            RenderSVGPath {rect} at (129,109) size 12x62 [stroke={[type=SOLID] [color=#000000] [stroke width=0.50]}] [fill={[type=SOLID] [color=#FFD700]}] [x=0.00] [y=0.00] [width=10.00] [height=60.00]
            RenderSVGPath {rect} at (144,109) size 12x62 [stroke={[type=SOLID] [color=#000000] [stroke width=0.50]}] [fill={[type=SOLID] [color=#FFA500]}] [x=15.00] [y=0.00] [width=10.00] [height=60.00]
            RenderSVGPath {rect} at (159,109) size 12x62 [stroke={[type=SOLID] [color=#000000] [stroke width=0.50]}] [fill={[type=SOLID] [color=#FF0000]}] [x=30.00] [y=0.00] [width=10.00] [height=60.00]
            RenderSVGPath {rect} at (174,109) size 12x62 [stroke={[type=SOLID] [color=#000000] [stroke width=0.50]}] [fill={[type=SOLID] [color=#FFD700]}] [x=45.00] [y=0.00] [width=10.00] [height=60.00]
            RenderSVGPath {rect} at (189,109) size 12x62 [stroke={[type=SOLID] [color=#000000] [stroke width=0.50]}] [fill={[type=SOLID] [color=#FF0000]}] [x=60.00] [y=0.00] [width=10.00] [height=60.00]
            RenderSVGPath {rect} at (204,109) size 12x62 [stroke={[type=SOLID] [color=#000000] [stroke width=0.50]}] [fill={[type=SOLID] [color=#FFA500]}] [x=75.00] [y=0.00] [width=10.00] [height=60.00]
            RenderSVGPath {rect} at (219,109) size 12x62 [stroke={[type=SOLID] [color=#000000] [stroke width=0.50]}] [fill={[type=SOLID] [color=#FFD700]}] [x=90.00] [y=0.00] [width=10.00] [height=60.00]
            RenderSVGPath {rect} at (129,109) size 102x62 [stroke={[type=SOLID] [color=#000000] [stroke width=0.50]}] [fill={[type=RADIAL-GRADIENT] [id="grad2b"]}] [x=0.00] [y=0.00] [width=100.00] [height=60.00]
      RenderSVGContainer {use} at (242,109) size 101x62
        RenderSVGContainer {g} at (241,109) size 103x62 [transform={m=((1.00,0.00)(0.00,1.00)) t=(242.50,110.00)}]
          RenderSVGContainer {g} at (241,109) size 103x62
            RenderSVGPath {rect} at (241,109) size 103x62 [stroke={[type=SOLID] [color=#000000] [stroke width=0.50]}] [fill={[type=SOLID] [color=#FFFF00]}] [x=0.00] [y=0.00] [width=100.00] [height=60.00]
            RenderSVGPath {rect} at (241,109) size 13x62 [stroke={[type=SOLID] [color=#000000] [stroke width=0.50]}] [fill={[type=SOLID] [color=#FFD700]}] [x=0.00] [y=0.00] [width=10.00] [height=60.00]
            RenderSVGPath {rect} at (256,109) size 13x62 [stroke={[type=SOLID] [color=#000000] [stroke width=0.50]}] [fill={[type=SOLID] [color=#FFA500]}] [x=15.00] [y=0.00] [width=10.00] [height=60.00]
            RenderSVGPath {rect} at (271,109) size 13x62 [stroke={[type=SOLID] [color=#000000] [stroke width=0.50]}] [fill={[type=SOLID] [color=#FF0000]}] [x=30.00] [y=0.00] [width=10.00] [height=60.00]
            RenderSVGPath {rect} at (286,109) size 13x62 [stroke={[type=SOLID] [color=#000000] [stroke width=0.50]}] [fill={[type=SOLID] [color=#FFD700]}] [x=45.00] [y=0.00] [width=10.00] [height=60.00]
            RenderSVGPath {rect} at (301,109) size 13x62 [stroke={[type=SOLID] [color=#000000] [stroke width=0.50]}] [fill={[type=SOLID] [color=#FF0000]}] [x=60.00] [y=0.00] [width=10.00] [height=60.00]
            RenderSVGPath {rect} at (316,109) size 13x62 [stroke={[type=SOLID] [color=#000000] [stroke width=0.50]}] [fill={[type=SOLID] [color=#FFA500]}] [x=75.00] [y=0.00] [width=10.00] [height=60.00]
            RenderSVGPath {rect} at (331,109) size 13x62 [stroke={[type=SOLID] [color=#000000] [stroke width=0.50]}] [fill={[type=SOLID] [color=#FFD700]}] [x=90.00] [y=0.00] [width=10.00] [height=60.00]
            RenderSVGPath {rect} at (241,109) size 103x62 [stroke={[type=SOLID] [color=#000000] [stroke width=0.50]}] [fill={[type=RADIAL-GRADIENT] [id="grad4b"]}] [x=0.00] [y=0.00] [width=100.00] [height=60.00]
      RenderSVGContainer {use} at (354,109) size 102x62
        RenderSVGContainer {g} at (354,109) size 102x62 [transform={m=((1.00,0.00)(0.00,1.00)) t=(355.00,110.00)}]
          RenderSVGContainer {g} at (354,109) size 102x62
            RenderSVGPath {rect} at (354,109) size 102x62 [stroke={[type=SOLID] [color=#000000] [stroke width=0.50]}] [fill={[type=SOLID] [color=#FFFF00]}] [x=0.00] [y=0.00] [width=100.00] [height=60.00]
            RenderSVGPath {rect} at (354,109) size 12x62 [stroke={[type=SOLID] [color=#000000] [stroke width=0.50]}] [fill={[type=SOLID] [color=#FFD700]}] [x=0.00] [y=0.00] [width=10.00] [height=60.00]
            RenderSVGPath {rect} at (369,109) size 12x62 [stroke={[type=SOLID] [color=#000000] [stroke width=0.50]}] [fill={[type=SOLID] [color=#FFA500]}] [x=15.00] [y=0.00] [width=10.00] [height=60.00]
            RenderSVGPath {rect} at (384,109) size 12x62 [stroke={[type=SOLID] [color=#000000] [stroke width=0.50]}] [fill={[type=SOLID] [color=#FF0000]}] [x=30.00] [y=0.00] [width=10.00] [height=60.00]
            RenderSVGPath {rect} at (399,109) size 12x62 [stroke={[type=SOLID] [color=#000000] [stroke width=0.50]}] [fill={[type=SOLID] [color=#FFD700]}] [x=45.00] [y=0.00] [width=10.00] [height=60.00]
            RenderSVGPath {rect} at (414,109) size 12x62 [stroke={[type=SOLID] [color=#000000] [stroke width=0.50]}] [fill={[type=SOLID] [color=#FF0000]}] [x=60.00] [y=0.00] [width=10.00] [height=60.00]
            RenderSVGPath {rect} at (429,109) size 12x62 [stroke={[type=SOLID] [color=#000000] [stroke width=0.50]}] [fill={[type=SOLID] [color=#FFA500]}] [x=75.00] [y=0.00] [width=10.00] [height=60.00]
            RenderSVGPath {rect} at (444,109) size 12x62 [stroke={[type=SOLID] [color=#000000] [stroke width=0.50]}] [fill={[type=SOLID] [color=#FFD700]}] [x=90.00] [y=0.00] [width=10.00] [height=60.00]
            RenderSVGPath {rect} at (354,109) size 102x62 [stroke={[type=SOLID] [color=#000000] [stroke width=0.50]}] [fill={[type=RADIAL-GRADIENT] [id="grad6b"]}] [x=0.00] [y=0.00] [width=100.00] [height=60.00]
      RenderSVGContainer {use} at (17,174) size 101x62
        RenderSVGContainer {g} at (16,174) size 103x62 [transform={m=((1.00,0.00)(0.00,1.00)) t=(17.50,175.00)}]
          RenderSVGContainer {g} at (16,174) size 103x62
            RenderSVGPath {rect} at (16,174) size 103x62 [stroke={[type=SOLID] [color=#000000] [stroke width=0.50]}] [fill={[type=SOLID] [color=#FFFF00]}] [x=0.00] [y=0.00] [width=100.00] [height=60.00]
            RenderSVGPath {rect} at (16,174) size 13x62 [stroke={[type=SOLID] [color=#000000] [stroke width=0.50]}] [fill={[type=SOLID] [color=#FFD700]}] [x=0.00] [y=0.00] [width=10.00] [height=60.00]
            RenderSVGPath {rect} at (31,174) size 13x62 [stroke={[type=SOLID] [color=#000000] [stroke width=0.50]}] [fill={[type=SOLID] [color=#FFA500]}] [x=15.00] [y=0.00] [width=10.00] [height=60.00]
            RenderSVGPath {rect} at (46,174) size 13x62 [stroke={[type=SOLID] [color=#000000] [stroke width=0.50]}] [fill={[type=SOLID] [color=#FF0000]}] [x=30.00] [y=0.00] [width=10.00] [height=60.00]
            RenderSVGPath {rect} at (61,174) size 13x62 [stroke={[type=SOLID] [color=#000000] [stroke width=0.50]}] [fill={[type=SOLID] [color=#FFD700]}] [x=45.00] [y=0.00] [width=10.00] [height=60.00]
            RenderSVGPath {rect} at (76,174) size 13x62 [stroke={[type=SOLID] [color=#000000] [stroke width=0.50]}] [fill={[type=SOLID] [color=#FF0000]}] [x=60.00] [y=0.00] [width=10.00] [height=60.00]
            RenderSVGPath {rect} at (91,174) size 13x62 [stroke={[type=SOLID] [color=#000000] [stroke width=0.50]}] [fill={[type=SOLID] [color=#FFA500]}] [x=75.00] [y=0.00] [width=10.00] [height=60.00]
            RenderSVGPath {rect} at (106,174) size 13x62 [stroke={[type=SOLID] [color=#000000] [stroke width=0.50]}] [fill={[type=SOLID] [color=#FFD700]}] [x=90.00] [y=0.00] [width=10.00] [height=60.00]
            RenderSVGPath {rect} at (16,174) size 103x62 [stroke={[type=SOLID] [color=#000000] [stroke width=0.50]}] [fill={[type=RADIAL-GRADIENT] [id="grad1c"]}] [x=0.00] [y=0.00] [width=100.00] [height=60.00]
      RenderSVGContainer {use} at (129,174) size 102x62
        RenderSVGContainer {g} at (129,174) size 102x62 [transform={m=((1.00,0.00)(0.00,1.00)) t=(130.00,175.00)}]
          RenderSVGContainer {g} at (129,174) size 102x62
            RenderSVGPath {rect} at (129,174) size 102x62 [stroke={[type=SOLID] [color=#000000] [stroke width=0.50]}] [fill={[type=SOLID] [color=#FFFF00]}] [x=0.00] [y=0.00] [width=100.00] [height=60.00]
            RenderSVGPath {rect} at (129,174) size 12x62 [stroke={[type=SOLID] [color=#000000] [stroke width=0.50]}] [fill={[type=SOLID] [color=#FFD700]}] [x=0.00] [y=0.00] [width=10.00] [height=60.00]
            RenderSVGPath {rect} at (144,174) size 12x62 [stroke={[type=SOLID] [color=#000000] [stroke width=0.50]}] [fill={[type=SOLID] [color=#FFA500]}] [x=15.00] [y=0.00] [width=10.00] [height=60.00]
            RenderSVGPath {rect} at (159,174) size 12x62 [stroke={[type=SOLID] [color=#000000] [stroke width=0.50]}] [fill={[type=SOLID] [color=#FF0000]}] [x=30.00] [y=0.00] [width=10.00] [height=60.00]
            RenderSVGPath {rect} at (174,174) size 12x62 [stroke={[type=SOLID] [color=#000000] [stroke width=0.50]}] [fill={[type=SOLID] [color=#FFD700]}] [x=45.00] [y=0.00] [width=10.00] [height=60.00]
            RenderSVGPath {rect} at (189,174) size 12x62 [stroke={[type=SOLID] [color=#000000] [stroke width=0.50]}] [fill={[type=SOLID] [color=#FF0000]}] [x=60.00] [y=0.00] [width=10.00] [height=60.00]
            RenderSVGPath {rect} at (204,174) size 12x62 [stroke={[type=SOLID] [color=#000000] [stroke width=0.50]}] [fill={[type=SOLID] [color=#FFA500]}] [x=75.00] [y=0.00] [width=10.00] [height=60.00]
            RenderSVGPath {rect} at (219,174) size 12x62 [stroke={[type=SOLID] [color=#000000] [stroke width=0.50]}] [fill={[type=SOLID] [color=#FFD700]}] [x=90.00] [y=0.00] [width=10.00] [height=60.00]
            RenderSVGPath {rect} at (129,174) size 102x62 [stroke={[type=SOLID] [color=#000000] [stroke width=0.50]}] [fill={[type=RADIAL-GRADIENT] [id="grad2c"]}] [x=0.00] [y=0.00] [width=100.00] [height=60.00]
      RenderSVGContainer {use} at (242,174) size 101x62
        RenderSVGContainer {g} at (241,174) size 103x62 [transform={m=((1.00,0.00)(0.00,1.00)) t=(242.50,175.00)}]
          RenderSVGContainer {g} at (241,174) size 103x62
            RenderSVGPath {rect} at (241,174) size 103x62 [stroke={[type=SOLID] [color=#000000] [stroke width=0.50]}] [fill={[type=SOLID] [color=#FFFF00]}] [x=0.00] [y=0.00] [width=100.00] [height=60.00]
            RenderSVGPath {rect} at (241,174) size 13x62 [stroke={[type=SOLID] [color=#000000] [stroke width=0.50]}] [fill={[type=SOLID] [color=#FFD700]}] [x=0.00] [y=0.00] [width=10.00] [height=60.00]
            RenderSVGPath {rect} at (256,174) size 13x62 [stroke={[type=SOLID] [color=#000000] [stroke width=0.50]}] [fill={[type=SOLID] [color=#FFA500]}] [x=15.00] [y=0.00] [width=10.00] [height=60.00]
            RenderSVGPath {rect} at (271,174) size 13x62 [stroke={[type=SOLID] [color=#000000] [stroke width=0.50]}] [fill={[type=SOLID] [color=#FF0000]}] [x=30.00] [y=0.00] [width=10.00] [height=60.00]
            RenderSVGPath {rect} at (286,174) size 13x62 [stroke={[type=SOLID] [color=#000000] [stroke width=0.50]}] [fill={[type=SOLID] [color=#FFD700]}] [x=45.00] [y=0.00] [width=10.00] [height=60.00]
            RenderSVGPath {rect} at (301,174) size 13x62 [stroke={[type=SOLID] [color=#000000] [stroke width=0.50]}] [fill={[type=SOLID] [color=#FF0000]}] [x=60.00] [y=0.00] [width=10.00] [height=60.00]
            RenderSVGPath {rect} at (316,174) size 13x62 [stroke={[type=SOLID] [color=#000000] [stroke width=0.50]}] [fill={[type=SOLID] [color=#FFA500]}] [x=75.00] [y=0.00] [width=10.00] [height=60.00]
            RenderSVGPath {rect} at (331,174) size 13x62 [stroke={[type=SOLID] [color=#000000] [stroke width=0.50]}] [fill={[type=SOLID] [color=#FFD700]}] [x=90.00] [y=0.00] [width=10.00] [height=60.00]
            RenderSVGPath {rect} at (241,174) size 103x62 [stroke={[type=SOLID] [color=#000000] [stroke width=0.50]}] [fill={[type=RADIAL-GRADIENT] [id="grad4c"]}] [x=0.00] [y=0.00] [width=100.00] [height=60.00]
      RenderSVGContainer {use} at (354,174) size 102x62
        RenderSVGContainer {g} at (354,174) size 102x62 [transform={m=((1.00,0.00)(0.00,1.00)) t=(355.00,175.00)}]
          RenderSVGContainer {g} at (354,174) size 102x62
            RenderSVGPath {rect} at (354,174) size 102x62 [stroke={[type=SOLID] [color=#000000] [stroke width=0.50]}] [fill={[type=SOLID] [color=#FFFF00]}] [x=0.00] [y=0.00] [width=100.00] [height=60.00]
            RenderSVGPath {rect} at (354,174) size 12x62 [stroke={[type=SOLID] [color=#000000] [stroke width=0.50]}] [fill={[type=SOLID] [color=#FFD700]}] [x=0.00] [y=0.00] [width=10.00] [height=60.00]
            RenderSVGPath {rect} at (369,174) size 12x62 [stroke={[type=SOLID] [color=#000000] [stroke width=0.50]}] [fill={[type=SOLID] [color=#FFA500]}] [x=15.00] [y=0.00] [width=10.00] [height=60.00]
            RenderSVGPath {rect} at (384,174) size 12x62 [stroke={[type=SOLID] [color=#000000] [stroke width=0.50]}] [fill={[type=SOLID] [color=#FF0000]}] [x=30.00] [y=0.00] [width=10.00] [height=60.00]
            RenderSVGPath {rect} at (399,174) size 12x62 [stroke={[type=SOLID] [color=#000000] [stroke width=0.50]}] [fill={[type=SOLID] [color=#FFD700]}] [x=45.00] [y=0.00] [width=10.00] [height=60.00]
            RenderSVGPath {rect} at (414,174) size 12x62 [stroke={[type=SOLID] [color=#000000] [stroke width=0.50]}] [fill={[type=SOLID] [color=#FF0000]}] [x=60.00] [y=0.00] [width=10.00] [height=60.00]
            RenderSVGPath {rect} at (429,174) size 12x62 [stroke={[type=SOLID] [color=#000000] [stroke width=0.50]}] [fill={[type=SOLID] [color=#FFA500]}] [x=75.00] [y=0.00] [width=10.00] [height=60.00]
            RenderSVGPath {rect} at (444,174) size 12x62 [stroke={[type=SOLID] [color=#000000] [stroke width=0.50]}] [fill={[type=SOLID] [color=#FFD700]}] [x=90.00] [y=0.00] [width=10.00] [height=60.00]
            RenderSVGPath {rect} at (354,174) size 102x62 [stroke={[type=SOLID] [color=#000000] [stroke width=0.50]}] [fill={[type=RADIAL-GRADIENT] [id="grad6c"]}] [x=0.00] [y=0.00] [width=100.00] [height=60.00]
      RenderSVGContainer {use} at (17,239) size 101x62
        RenderSVGContainer {g} at (16,239) size 103x62 [transform={m=((1.00,0.00)(0.00,1.00)) t=(17.50,240.00)}]
          RenderSVGContainer {g} at (16,239) size 103x62
            RenderSVGPath {rect} at (16,239) size 103x62 [stroke={[type=SOLID] [color=#000000] [stroke width=0.50]}] [fill={[type=SOLID] [color=#FFFF00]}] [x=0.00] [y=0.00] [width=100.00] [height=60.00]
            RenderSVGPath {rect} at (16,239) size 13x62 [stroke={[type=SOLID] [color=#000000] [stroke width=0.50]}] [fill={[type=SOLID] [color=#FFD700]}] [x=0.00] [y=0.00] [width=10.00] [height=60.00]
            RenderSVGPath {rect} at (31,239) size 13x62 [stroke={[type=SOLID] [color=#000000] [stroke width=0.50]}] [fill={[type=SOLID] [color=#FFA500]}] [x=15.00] [y=0.00] [width=10.00] [height=60.00]
            RenderSVGPath {rect} at (46,239) size 13x62 [stroke={[type=SOLID] [color=#000000] [stroke width=0.50]}] [fill={[type=SOLID] [color=#FF0000]}] [x=30.00] [y=0.00] [width=10.00] [height=60.00]
            RenderSVGPath {rect} at (61,239) size 13x62 [stroke={[type=SOLID] [color=#000000] [stroke width=0.50]}] [fill={[type=SOLID] [color=#FFD700]}] [x=45.00] [y=0.00] [width=10.00] [height=60.00]
            RenderSVGPath {rect} at (76,239) size 13x62 [stroke={[type=SOLID] [color=#000000] [stroke width=0.50]}] [fill={[type=SOLID] [color=#FF0000]}] [x=60.00] [y=0.00] [width=10.00] [height=60.00]
            RenderSVGPath {rect} at (91,239) size 13x62 [stroke={[type=SOLID] [color=#000000] [stroke width=0.50]}] [fill={[type=SOLID] [color=#FFA500]}] [x=75.00] [y=0.00] [width=10.00] [height=60.00]
            RenderSVGPath {rect} at (106,239) size 13x62 [stroke={[type=SOLID] [color=#000000] [stroke width=0.50]}] [fill={[type=SOLID] [color=#FFD700]}] [x=90.00] [y=0.00] [width=10.00] [height=60.00]
            RenderSVGPath {rect} at (16,239) size 103x62 [stroke={[type=SOLID] [color=#000000] [stroke width=0.50]}] [fill={[type=RADIAL-GRADIENT] [id="grad1d"]}] [x=0.00] [y=0.00] [width=100.00] [height=60.00]
      RenderSVGContainer {use} at (129,239) size 102x62
        RenderSVGContainer {g} at (129,239) size 102x62 [transform={m=((1.00,0.00)(0.00,1.00)) t=(130.00,240.00)}]
          RenderSVGContainer {g} at (129,239) size 102x62
            RenderSVGPath {rect} at (129,239) size 102x62 [stroke={[type=SOLID] [color=#000000] [stroke width=0.50]}] [fill={[type=SOLID] [color=#FFFF00]}] [x=0.00] [y=0.00] [width=100.00] [height=60.00]
            RenderSVGPath {rect} at (129,239) size 12x62 [stroke={[type=SOLID] [color=#000000] [stroke width=0.50]}] [fill={[type=SOLID] [color=#FFD700]}] [x=0.00] [y=0.00] [width=10.00] [height=60.00]
            RenderSVGPath {rect} at (144,239) size 12x62 [stroke={[type=SOLID] [color=#000000] [stroke width=0.50]}] [fill={[type=SOLID] [color=#FFA500]}] [x=15.00] [y=0.00] [width=10.00] [height=60.00]
            RenderSVGPath {rect} at (159,239) size 12x62 [stroke={[type=SOLID] [color=#000000] [stroke width=0.50]}] [fill={[type=SOLID] [color=#FF0000]}] [x=30.00] [y=0.00] [width=10.00] [height=60.00]
            RenderSVGPath {rect} at (174,239) size 12x62 [stroke={[type=SOLID] [color=#000000] [stroke width=0.50]}] [fill={[type=SOLID] [color=#FFD700]}] [x=45.00] [y=0.00] [width=10.00] [height=60.00]
            RenderSVGPath {rect} at (189,239) size 12x62 [stroke={[type=SOLID] [color=#000000] [stroke width=0.50]}] [fill={[type=SOLID] [color=#FF0000]}] [x=60.00] [y=0.00] [width=10.00] [height=60.00]
            RenderSVGPath {rect} at (204,239) size 12x62 [stroke={[type=SOLID] [color=#000000] [stroke width=0.50]}] [fill={[type=SOLID] [color=#FFA500]}] [x=75.00] [y=0.00] [width=10.00] [height=60.00]
            RenderSVGPath {rect} at (219,239) size 12x62 [stroke={[type=SOLID] [color=#000000] [stroke width=0.50]}] [fill={[type=SOLID] [color=#FFD700]}] [x=90.00] [y=0.00] [width=10.00] [height=60.00]
            RenderSVGPath {rect} at (129,239) size 102x62 [stroke={[type=SOLID] [color=#000000] [stroke width=0.50]}] [fill={[type=RADIAL-GRADIENT] [id="grad2d"]}] [x=0.00] [y=0.00] [width=100.00] [height=60.00]
      RenderSVGContainer {use} at (242,239) size 101x62
        RenderSVGContainer {g} at (241,239) size 103x62 [transform={m=((1.00,0.00)(0.00,1.00)) t=(242.50,240.00)}]
          RenderSVGContainer {g} at (241,239) size 103x62
            RenderSVGPath {rect} at (241,239) size 103x62 [stroke={[type=SOLID] [color=#000000] [stroke width=0.50]}] [fill={[type=SOLID] [color=#FFFF00]}] [x=0.00] [y=0.00] [width=100.00] [height=60.00]
            RenderSVGPath {rect} at (241,239) size 13x62 [stroke={[type=SOLID] [color=#000000] [stroke width=0.50]}] [fill={[type=SOLID] [color=#FFD700]}] [x=0.00] [y=0.00] [width=10.00] [height=60.00]
            RenderSVGPath {rect} at (256,239) size 13x62 [stroke={[type=SOLID] [color=#000000] [stroke width=0.50]}] [fill={[type=SOLID] [color=#FFA500]}] [x=15.00] [y=0.00] [width=10.00] [height=60.00]
            RenderSVGPath {rect} at (271,239) size 13x62 [stroke={[type=SOLID] [color=#000000] [stroke width=0.50]}] [fill={[type=SOLID] [color=#FF0000]}] [x=30.00] [y=0.00] [width=10.00] [height=60.00]
            RenderSVGPath {rect} at (286,239) size 13x62 [stroke={[type=SOLID] [color=#000000] [stroke width=0.50]}] [fill={[type=SOLID] [color=#FFD700]}] [x=45.00] [y=0.00] [width=10.00] [height=60.00]
            RenderSVGPath {rect} at (301,239) size 13x62 [stroke={[type=SOLID] [color=#000000] [stroke width=0.50]}] [fill={[type=SOLID] [color=#FF0000]}] [x=60.00] [y=0.00] [width=10.00] [height=60.00]
            RenderSVGPath {rect} at (316,239) size 13x62 [stroke={[type=SOLID] [color=#000000] [stroke width=0.50]}] [fill={[type=SOLID] [color=#FFA500]}] [x=75.00] [y=0.00] [width=10.00] [height=60.00]
            RenderSVGPath {rect} at (331,239) size 13x62 [stroke={[type=SOLID] [color=#000000] [stroke width=0.50]}] [fill={[type=SOLID] [color=#FFD700]}] [x=90.00] [y=0.00] [width=10.00] [height=60.00]
            RenderSVGPath {rect} at (241,239) size 103x62 [stroke={[type=SOLID] [color=#000000] [stroke width=0.50]}] [fill={[type=RADIAL-GRADIENT] [id="grad4d"]}] [x=0.00] [y=0.00] [width=100.00] [height=60.00]
      RenderSVGContainer {use} at (354,239) size 102x62
        RenderSVGContainer {g} at (354,239) size 102x62 [transform={m=((1.00,0.00)(0.00,1.00)) t=(355.00,240.00)}]
          RenderSVGContainer {g} at (354,239) size 102x62
            RenderSVGPath {rect} at (354,239) size 102x62 [stroke={[type=SOLID] [color=#000000] [stroke width=0.50]}] [fill={[type=SOLID] [color=#FFFF00]}] [x=0.00] [y=0.00] [width=100.00] [height=60.00]
            RenderSVGPath {rect} at (354,239) size 12x62 [stroke={[type=SOLID] [color=#000000] [stroke width=0.50]}] [fill={[type=SOLID] [color=#FFD700]}] [x=0.00] [y=0.00] [width=10.00] [height=60.00]
            RenderSVGPath {rect} at (369,239) size 12x62 [stroke={[type=SOLID] [color=#000000] [stroke width=0.50]}] [fill={[type=SOLID] [color=#FFA500]}] [x=15.00] [y=0.00] [width=10.00] [height=60.00]
            RenderSVGPath {rect} at (384,239) size 12x62 [stroke={[type=SOLID] [color=#000000] [stroke width=0.50]}] [fill={[type=SOLID] [color=#FF0000]}] [x=30.00] [y=0.00] [width=10.00] [height=60.00]
            RenderSVGPath {rect} at (399,239) size 12x62 [stroke={[type=SOLID] [color=#000000] [stroke width=0.50]}] [fill={[type=SOLID] [color=#FFD700]}] [x=45.00] [y=0.00] [width=10.00] [height=60.00]
            RenderSVGPath {rect} at (414,239) size 12x62 [stroke={[type=SOLID] [color=#000000] [stroke width=0.50]}] [fill={[type=SOLID] [color=#FF0000]}] [x=60.00] [y=0.00] [width=10.00] [height=60.00]
            RenderSVGPath {rect} at (429,239) size 12x62 [stroke={[type=SOLID] [color=#000000] [stroke width=0.50]}] [fill={[type=SOLID] [color=#FFA500]}] [x=75.00] [y=0.00] [width=10.00] [height=60.00]
            RenderSVGPath {rect} at (444,239) size 12x62 [stroke={[type=SOLID] [color=#000000] [stroke width=0.50]}] [fill={[type=SOLID] [color=#FFD700]}] [x=90.00] [y=0.00] [width=10.00] [height=60.00]
            RenderSVGPath {rect} at (354,239) size 102x62 [stroke={[type=SOLID] [color=#000000] [stroke width=0.50]}] [fill={[type=RADIAL-GRADIENT] [id="grad6d"]}] [x=0.00] [y=0.00] [width=100.00] [height=60.00]
    RenderSVGText {text} at (10,313) size 198x34 contains 1 chunk(s)
      RenderSVGInlineText {#text} at (0,0) size 198x34
        chunk 1 text run 1 at (10.00,340.00) startOffset 0 endOffset 16 width 198.00: "$Revision: 1.7 $"
    RenderSVGPath {rect} at (0,0) size 480x360 [stroke={[type=SOLID] [color=#000000]}] [x=1.00] [y=1.00] [width=478.00] [height=358.00]
