layer at (0,0) size 800x600
  RenderView at (0,0) size 800x600
layer at (0,0) size 450x500
  RenderSVGRoot {svg} at (90,36) size 250x437
    RenderSVGHiddenContainer {defs} at (0,0) size 0x0
      RenderSVGText {text} at (0,-15) size 44x19 contains 1 chunk(s)
        RenderSVGInlineText {#text} at (0,0) size 44x19
          chunk 1 text run 1 at (0.00,0.00) startOffset 0 endOffset 6 width 44.00: "sample"
    RenderSVGContainer {g} at (90,36) size 250x437
      RenderSVGText {text} at (140,36) size 170x18 contains 1 chunk(s)
        RenderSVGInlineText {#text} at (0,0) size 170x18
          chunk 1 (middle anchor) text run 1 at (140.00,50.00) startOffset 0 endOffset 26 width 170.00: "Text Layout Properties (2)"
      RenderSVGText {text} at (186,66) size 78x12 contains 1 chunk(s)
        RenderSVGInlineText {#text} at (0,0) size 78x12
          chunk 1 (middle anchor) text run 1 at (186.50,75.00) startOffset 0 endOffset 19 width 77.00: "Baseline Properties"
      RenderSVGContainer {g} at (154,87) size 142x50
        RenderSVGText {text} at (161,87) size 128x36 contains 1 chunk(s)
          RenderSVGTSpan {tspan} at (0,0) size 35x18
            RenderSVGInlineText {#text} at (0,0) size 35x18
              chunk 1 (middle anchor) text run 1 at (161.50,101.00) startOffset 0 endOffset 5 width 34.00: "super"
          RenderSVGInlineText {#text} at (34,9) size 32x18
            chunk 1 (middle anchor) text run 1 at (195.50,110.00) startOffset 0 endOffset 5 width 31.00: " and "
          RenderSVGTSpan {tspan} at (0,0) size 23x18
            RenderSVGInlineText {#text} at (65,18) size 23x18
              chunk 1 (middle anchor) text run 1 at (226.50,119.00) startOffset 0 endOffset 3 width 22.00: "sub"
          RenderSVGInlineText {#text} at (87,9) size 41x18
            chunk 1 (middle anchor) text run 1 at (248.50,110.00) startOffset 0 endOffset 7 width 40.00: "scripts"
        RenderSVGText {text} at (154,127) size 142x10 contains 1 chunk(s)
          RenderSVGInlineText {#text} at (0,0) size 142x10
            chunk 1 (middle anchor) text run 1 at (154.50,135.00) startOffset 0 endOffset 43 width 141.00: "baseline-shift=\"super\"/baseline-shift=\"sub\""
      RenderSVGContainer {g} at (115,148) size 220x34
        RenderSVGText {text} at (115,148) size 220x24 contains 1 chunk(s)
          RenderSVGTSpan {tspan} at (0,0) size 49x18
            RenderSVGInlineText {#text} at (0,0) size 49x18
              chunk 1 (middle anchor) text run 1 at (115.00,162.00) startOffset 0 endOffset 8 width 49.00: "positive"
          RenderSVGInlineText {#text} at (49,3) size 31x18
            chunk 1 (middle anchor) text run 1 at (164.00,165.00) startOffset 0 endOffset 5 width 31.00: " and "
          RenderSVGTSpan {tspan} at (0,0) size 57x18
            RenderSVGInlineText {#text} at (80,6) size 57x18
              chunk 1 (middle anchor) text run 1 at (195.00,168.00) startOffset 0 endOffset 9 width 57.00: "negative "
          RenderSVGInlineText {#text} at (137,3) size 83x18
            chunk 1 (middle anchor) text run 1 at (252.00,165.00) startOffset 0 endOffset 14 width 83.00: "baseline-shift"
        RenderSVGText {text} at (185,172) size 80x10 contains 1 chunk(s)
          RenderSVGInlineText {#text} at (0,0) size 80x10
            chunk 1 (middle anchor) text run 1 at (185.00,180.00) startOffset 0 endOffset 23 width 80.00: "baseline-shift=\"+/-20%\""
      RenderSVGText {text} at (174,201) size 102x12 contains 1 chunk(s)
        RenderSVGInlineText {#text} at (0,0) size 102x12
          chunk 1 (middle anchor) text run 1 at (174.00,210.00) startOffset 0 endOffset 25 width 102.00: "Multi-line Text Selection"
      RenderSVGText {text} at (159,217) size 132x10 contains 1 chunk(s)
        RenderSVGInlineText {#text} at (0,0) size 132x10
          chunk 1 (middle anchor) text run 1 at (159.50,225.00) startOffset 0 endOffset 42 width 131.00: "(Try selecting the following text regions)"
      RenderSVGText {text} at (120,236) size 211x33 contains 1 chunk(s)
        RenderSVGTSpan {tspan} at (0,0) size 207x18
          RenderSVGInlineText {#text} at (0,0) size 207x18
            chunk 1 text run 1 at (120.00,250.00) startOffset 0 endOffset 33 width 207.00: "Text selections can span multiple"
        RenderSVGInlineText {#text} at (207,0) size 4x18
          chunk 1 text run 1 at (327.00,250.00) startOffset 0 endOffset 1 width 4.00: " "
        RenderSVGTSpan {tspan} at (0,0) size 168x18
          RenderSVGInlineText {#text} at (0,15) size 168x18
            chunk 1 text run 1 at (120.00,265.00) startOffset 0 endOffset 27 width 168.00: "lines via <tspan> elements."
        RenderSVGInlineText {#text} at (0,0) size 0x0
      RenderSVGText {text} at (0,-68) size 106x123 contains 1 chunk(s)
        RenderSVGTSpan {tspan} at (0,0) size 106x123
          RenderSVGInlineText {#text} at (0,50) size 106x123
            chunk 1 text run 1 at (0.00,0.00) startOffset 0 endOffset 1 width 12.00: "T"
            chunk 1 text run 1 at (10.00,-25.00) startOffset 0 endOffset 1 width 9.00: "e"
            chunk 1 text run 1 at (25.00,-40.00) startOffset 0 endOffset 1 width 10.00: "x"
            chunk 1 text run 1 at (50.00,-50.00) startOffset 0 endOffset 1 width 6.00: "t"
            chunk 1 text run 1 at (75.00,-40.00) startOffset 0 endOffset 1 width 7.00: "-"
            chunk 1 text run 1 at (90.00,-25.00) startOffset 0 endOffset 1 width 9.00: "c"
            chunk 1 text run 1 at (100.00,0.00) startOffset 0 endOffset 1 width 6.00: "i"
            chunk 1 text run 1 at (90.00,25.00) startOffset 0 endOffset 1 width 7.00: "r"
            chunk 1 text run 1 at (75.00,40.00) startOffset 0 endOffset 1 width 9.00: "c"
            chunk 1 text run 1 at (50.00,50.00) startOffset 0 endOffset 1 width 6.00: "l"
            chunk 1 text run 1 at (25.00,40.00) startOffset 0 endOffset 1 width 9.00: "e"
            chunk 1 text run 1 at (10.00,25.00) startOffset 0 endOffset 1 width 5.00: "."
        RenderSVGInlineText {#text} at (0,0) size 0x0
      RenderSVGText {text} at (0,-18) size 90x103 contains 1 chunk(s)
        RenderSVGInlineText {#text} at (0,0) size 90x103
          chunk 1 text run 1 at (0.00,0.00) startOffset 0 endOffset 1 width 12.00: "T"
          chunk 1 text run 1 at (20.00,0.00) startOffset 0 endOffset 1 width 9.00: "e"
          chunk 1 text run 1 at (40.00,0.00) startOffset 0 endOffset 1 width 10.00: "x"
          chunk 1 text run 1 at (60.00,0.00) startOffset 0 endOffset 1 width 6.00: "t"
          chunk 1 text run 1 at (80.00,0.00) startOffset 0 endOffset 1 width 7.00: "-"
          chunk 1 text run 1 at (80.00,20.00) startOffset 0 endOffset 1 width 6.00: "i"
          chunk 1 text run 1 at (80.00,40.00) startOffset 0 endOffset 1 width 10.00: "n"
          chunk 1 text run 1 at (80.00,60.00) startOffset 0 endOffset 1 width 7.00: "-"
          chunk 1 text run 1 at (80.00,80.00) startOffset 0 endOffset 1 width 9.00: "a"
          chunk 1 text run 1 at (60.00,80.00) startOffset 0 endOffset 1 width 7.00: "-"
          chunk 1 text run 1 at (40.00,80.00) startOffset 0 endOffset 1 width 8.00: "s"
          chunk 1 text run 1 at (20.00,80.00) startOffset 0 endOffset 1 width 10.00: "q"
          chunk 1 text run 1 at (0.00,80.00) startOffset 0 endOffset 1 width 10.00: "u"
          chunk 1 text run 1 at (0.00,60.00) startOffset 0 endOffset 1 width 9.00: "a"
          chunk 1 text run 1 at (0.00,40.00) startOffset 0 endOffset 1 width 7.00: "r"
          chunk 1 text run 1 at (0.00,20.00) startOffset 0 endOffset 1 width 9.00: "e"
      RenderSVGText {text} at (149,434) size 152x22 contains 1 chunk(s)
        RenderSVGInlineText {#text} at (0,2) size 63x18
          chunk 1 (middle anchor) text run 1 at (149.00,450.00) startOffset 0 endOffset 10 width 63.00: "Text with "
        RenderSVGTSpan {tspan} at (0,0) size 47x22
          RenderSVGInlineText {#text} at (62,0) size 47x22
            chunk 1 (middle anchor) text run 1 at (212.00,450.00) startOffset 0 endOffset 1 width 5.00: "r"
            chunk 1 (middle anchor) text run 2 at (217.00,450.00) startOffset 1 endOffset 2 width 8.00: "o"
            chunk 1 (middle anchor) text run 3 at (225.00,450.00) startOffset 2 endOffset 3 width 4.00: "t"
            chunk 1 (middle anchor) text run 4 at (229.00,450.00) startOffset 3 endOffset 4 width 7.00: "a"
            chunk 1 (middle anchor) text run 5 at (236.00,450.00) startOffset 4 endOffset 5 width 4.00: "t"
            chunk 1 (middle anchor) text run 6 at (240.00,450.00) startOffset 5 endOffset 6 width 7.00: "e"
            chunk 1 (middle anchor) text run 7 at (247.00,450.00) startOffset 6 endOffset 7 width 8.00: "d"
        RenderSVGInlineText {#text} at (106,2) size 46x18
          chunk 1 (middle anchor) text run 1 at (255.00,450.00) startOffset 0 endOffset 7 width 46.00: " glyphs"
      RenderSVGText {text} at (160,451) size 132x22 contains 1 chunk(s)
        RenderSVGInlineText {#text} at (0,0) size 132x22
          chunk 1 (middle anchor) text run 1 at (162.00,465.00) startOffset 0 endOffset 1 width 13.00: "M"
          chunk 1 (middle anchor) text run 2 at (175.00,465.00) startOffset 1 endOffset 2 width 8.00: "o"
          chunk 1 (middle anchor) text run 3 at (183.00,465.00) startOffset 2 endOffset 3 width 5.00: "r"
          chunk 1 (middle anchor) text run 4 at (188.00,465.00) startOffset 3 endOffset 4 width 7.00: "e"
          chunk 1 (middle anchor) text run 5 at (195.00,465.00) startOffset 4 endOffset 5 width 4.00: " "
          chunk 1 (middle anchor) text run 6 at (199.00,465.00) startOffset 5 endOffset 6 width 5.00: "r"
          chunk 1 (middle anchor) text run 7 at (204.00,465.00) startOffset 6 endOffset 7 width 8.00: "o"
          chunk 1 (middle anchor) text run 8 at (212.00,465.00) startOffset 7 endOffset 8 width 4.00: "t"
          chunk 1 (middle anchor) text run 9 at (216.00,465.00) startOffset 8 endOffset 9 width 7.00: "a"
          chunk 1 (middle anchor) text run 10 at (223.00,465.00) startOffset 9 endOffset 10 width 4.00: "t"
          chunk 1 (middle anchor) text run 11 at (227.00,465.00) startOffset 10 endOffset 11 width 7.00: "e"
          chunk 1 (middle anchor) text run 12 at (234.00,465.00) startOffset 11 endOffset 12 width 8.00: "d"
          chunk 1 (middle anchor) text run 13 at (242.00,465.00) startOffset 12 endOffset 13 width 4.00: " "
          chunk 1 (middle anchor) text run 14 at (246.00,465.00) startOffset 13 endOffset 14 width 8.00: "g"
          chunk 1 (middle anchor) text run 15 at (254.00,465.00) startOffset 14 endOffset 15 width 4.00: "l"
          chunk 1 (middle anchor) text run 16 at (258.00,465.00) startOffset 15 endOffset 16 width 8.00: "y"
          chunk 1 (middle anchor) text run 17 at (266.00,465.00) startOffset 16 endOffset 17 width 8.00: "p"
          chunk 1 (middle anchor) text run 18 at (274.00,465.00) startOffset 17 endOffset 18 width 8.00: "h"
          chunk 1 (middle anchor) text run 19 at (282.00,465.00) startOffset 18 endOffset 19 width 6.00: "s"
    RenderSVGContainer {use} at (0,0) size 0x0
