layer at (0,0) size 800x600
  RenderView at (0,0) size 800x600
layer at (0,0) size 800x600
  RenderSVGRoot {svg} at (45,0) size 410x70
    RenderSVGContainer {g} at (45,0) size 410x70
      RenderSVGPath {svg:line} at (45,0) size 10x70 [stroke={[type=SOLID] [color=#008000]}] [fill={[type=SOLID] [color=#000000]}] [x1=10.00] [y1=0.40] [x2=10.00] [y2=13.40]
      RenderSVGPath {svg:line} at (445,0) size 10x70 [stroke={[type=SOLID] [color=#008000]}] [fill={[type=SOLID] [color=#000000]}] [x1=89.80] [y1=0.40] [x2=89.80] [y2=13.40]
      RenderSVGPath {svg:rect} at (50,0) size 400x65 [fill={[type=SOLID] [color=#FF0000] [opacity=0.40]}] [x=10.00] [y=0.40] [width=79.80] [height=12.40]
    RenderSVGText {text} at (10,0) size 80x13 contains 1 chunk(s)
      RenderSVGInlineText {#text} at (0,0) size 17x13
        chunk 1 text run 1 at (10.00,10.00) startOffset 0 endOffset 1 width 6.20: "T"
        chunk 1 text run 1 at (20.00,10.00) startOffset 0 endOffset 1 width 6.60: "h"
      RenderSVGTSpan {tspan} at (0,0) size 3x13
        RenderSVGInlineText {#text} at (30,0) size 3x13
          chunk 1 text run 1 at (40.00,10.00) startOffset 0 endOffset 1 width 3.00: "i"
      RenderSVGTSpan {tspan} at (0,0) size 12x13
        RenderSVGInlineText {#text} at (33,0) size 12x13
          chunk 1 text run 1 at (43.00,10.00) startOffset 0 endOffset 3 width 11.40: "s i"
      RenderSVGInlineText {#text} at (44,0) size 6x13
        chunk 1 text run 1 at (54.40,10.00) startOffset 0 endOffset 1 width 5.20: "s"
      RenderSVGTSpan {tspan} at (0,0) size 13x13
        RenderSVGInlineText {#text} at (49,0) size 13x13
          chunk 1 text run 1 at (59.60,10.00) startOffset 0 endOffset 3 width 12.20: " a "
      RenderSVGTSpan {tspan} at (0,0) size 5x13
        RenderSVGInlineText {#text} at (61,0) size 5x13
          chunk 1 text run 1 at (71.80,10.00) startOffset 0 endOffset 1 width 3.80: "t"
      RenderSVGInlineText {#text} at (65,0) size 15x13
        chunk 1 text run 1 at (75.60,10.00) startOffset 0 endOffset 3 width 14.20: "est"
selection start: position 0 of child 0 {#text} of child 7 {text} of child 0 {svg} of document
selection end:   position 3 of child 6 {#text} of child 7 {text} of child 0 {svg} of document
