layer at (0,0) size 800x600
  RenderView at (0,0) size 800x600
layer at (0,0) size 800x600
  RenderSVGRoot {svg} at (0,0) size 800x600
    RenderSVGContainer {g} at (0,1) size 800x599
      RenderSVGText {text} at (0,1) size 535x50 contains 1 chunk(s)
        RenderSVGInlineText {#text} at (0,0) size 535x50
          chunk 1 text run 1 at (0.00,40.00) startOffset 0 endOffset 31 width 534.60: "Test 'baseline-shift' (vertic.)"
      RenderSVGContainer {g} at (135,100) size 499x500
        RenderSVGContainer {g} at (135,100) size 499x500 [transform={m=((1.00,0.00)(0.00,1.00)) t=(90.00,60.00)}]
          RenderSVGText {text} at (-9,0) size 26x187 contains 1 chunk(s)
            RenderSVGInlineText {#text} at (1,0) size 16x75
              chunk 1 (vertical) text run 1 at (-10.00,0.00) startOffset 0 endOffset 1 height 37.20: "t"
              chunk 1 (vertical) text run 2 at (-10.00,37.20) startOffset 1 endOffset 2 height 37.20: "e"
            RenderSVGTSpan {tspan} at (0,0) size 20x38
              RenderSVGInlineText {#text} at (6,74) size 20x38
                chunk 1 (vertical) text run 1 at (-3.00,74.40) startOffset 0 endOffset 1 height 37.20: "7"
            RenderSVGInlineText {#text} at (0,111) size 18x76
              chunk 1 (vertical) text run 1 at (-10.00,111.60) startOffset 0 endOffset 1 height 37.20: "x"
              chunk 1 (vertical) text run 2 at (-10.00,148.80) startOffset 1 endOffset 2 height 37.20: "t"
          RenderSVGText {text} at (45,0) size 44x298 contains 1 chunk(s)
            RenderSVGInlineText {#text} at (27,0) size 16x75
              chunk 1 (vertical) text run 1 at (70.00,0.00) startOffset 0 endOffset 1 height 37.20: "t"
              chunk 1 (vertical) text run 2 at (70.00,37.20) startOffset 1 endOffset 2 height 37.20: "e"
            RenderSVGTSpan {tspan} at (0,0) size 28x150
              RenderSVGInlineText {#text} at (0,74) size 28x150
                chunk 1 (vertical) text run 1 at (49.00,74.40) startOffset 0 endOffset 1 height 37.20: "-"
                chunk 1 (vertical) text run 2 at (49.00,111.60) startOffset 1 endOffset 2 height 37.20: "7"
                chunk 1 (vertical) text run 3 at (49.00,148.80) startOffset 2 endOffset 3 height 37.20: "0"
                chunk 1 (vertical) text run 4 at (49.00,186.00) startOffset 3 endOffset 4 height 37.20: "%"
            RenderSVGInlineText {#text} at (26,223) size 18x75
              chunk 1 (vertical) text run 1 at (70.00,223.20) startOffset 0 endOffset 1 height 37.20: "x"
              chunk 1 (vertical) text run 2 at (70.00,260.40) startOffset 1 endOffset 2 height 37.20: "t"
          RenderSVGText {text} at (150,0) size 39x261 contains 1 chunk(s)
            RenderSVGInlineText {#text} at (22,0) size 16x75
              chunk 1 (vertical) text run 1 at (170.00,0.00) startOffset 0 endOffset 1 height 37.20: "t"
              chunk 1 (vertical) text run 2 at (170.00,37.20) startOffset 1 endOffset 2 height 37.20: "e"
            RenderSVGTSpan {tspan} at (0,0) size 22x113
              RenderSVGInlineText {#text} at (0,74) size 22x113
                chunk 1 (vertical) text run 1 at (151.00,74.40) startOffset 0 endOffset 1 height 37.20: "s"
                chunk 1 (vertical) text run 2 at (151.00,111.60) startOffset 1 endOffset 2 height 37.20: "u"
                chunk 1 (vertical) text run 3 at (151.00,148.80) startOffset 2 endOffset 3 height 37.20: "b"
            RenderSVGTSpan {tspan} at (0,0) size 18x38
              RenderSVGInlineText {#text} at (21,186) size 18x38
                chunk 1 (vertical) text run 1 at (170.00,186.00) startOffset 0 endOffset 1 height 37.20: "x"
            RenderSVGInlineText {#text} at (24,223) size 12x38
              chunk 1 (vertical) text run 1 at (170.00,223.20) startOffset 0 endOffset 1 height 37.20: "t"
          RenderSVGText {text} at (251,0) size 39x336 contains 1 chunk(s)
            RenderSVGInlineText {#text} at (1,0) size 16x75
              chunk 1 (vertical) text run 1 at (250.00,0.00) startOffset 0 endOffset 1 height 37.20: "t"
              chunk 1 (vertical) text run 2 at (250.00,37.20) startOffset 1 endOffset 2 height 37.20: "e"
            RenderSVGTSpan {tspan} at (0,0) size 22x187
              RenderSVGInlineText {#text} at (17,74) size 22x187
                chunk 1 (vertical) text run 1 at (269.00,74.40) startOffset 0 endOffset 1 height 37.20: "s"
                chunk 1 (vertical) text run 2 at (269.00,111.60) startOffset 1 endOffset 2 height 37.20: "u"
                chunk 1 (vertical) text run 3 at (269.00,148.80) startOffset 2 endOffset 3 height 37.20: "p"
                chunk 1 (vertical) text run 4 at (269.00,186.00) startOffset 3 endOffset 4 height 37.20: "e"
                chunk 1 (vertical) text run 5 at (269.00,223.20) startOffset 4 endOffset 5 height 37.20: "r"
            RenderSVGTSpan {tspan} at (0,0) size 18x38
              RenderSVGInlineText {#text} at (0,260) size 18x38
                chunk 1 (vertical) text run 1 at (250.00,260.40) startOffset 0 endOffset 1 height 37.20: "x"
            RenderSVGInlineText {#text} at (3,297) size 12x39
              chunk 1 (vertical) text run 1 at (250.00,297.60) startOffset 0 endOffset 1 height 37.20: "t"
    RenderSVGText {text} at (10,301) size 274x53 contains 1 chunk(s)
      RenderSVGInlineText {#text} at (0,0) size 274x53
        chunk 1 text run 1 at (10.00,340.00) startOffset 0 endOffset 16 width 273.60: "$Revision: 1.5 $"
    RenderSVGPath {rect} at (0,0) size 800x600 [stroke={[type=SOLID] [color=#000000]}] [x=1.00] [y=1.00] [width=478.00] [height=358.00]
selection start: position 0 of child 0 {#text} of child 1 {text} of child 13 {g} of child 27 {svg} of document
selection end:   position 16 of child 0 {#text} of child 15 {text} of child 27 {svg} of document
