layer at (0,0) size 800x600
  RenderView at (0,0) size 800x600
layer at (0,0) size 800x106
  RenderBlock {HTML} at (0,0) size 800x106
    RenderBody {BODY} at (8,16) size 784x82
      RenderBlock {P} at (0,0) size 784x22
        RenderText {#text} at (0,0) size 306x22
          text run at (0,0) width 306: "The following two lines should look the same:"
      RenderBlock {DIV} at (0,38) size 784x22
        RenderInline {SPAN} at (0,0) size 33x22
          RenderInline (generated) at (0,0) size 33x22
            RenderCounter at (0,0) size 20x22
              text run at (0,0) width 20: "1.1"
            RenderText at (20,0) size 13x22
              text run at (20,0) width 13: " - "
        RenderInline {SPAN} at (0,0) size 29x22
          RenderInline (generated) at (0,0) size 29x22
            RenderCounter at (33,0) size 16x22
              text run at (33,0) width 16: "12"
            RenderText at (49,0) size 13x22
              text run at (49,0) width 13: " - "
        RenderInline {SPAN} at (0,0) size 119x22
          RenderInline (generated) at (0,0) size 119x22
            RenderCounter at (62,0) size 20x22
              text run at (62,0) width 20: "1.3"
            RenderText at (82,0) size 48x22
              text run at (82,0) width 48: "--       --"
            RenderCounter at (130,0) size 51x22
              text run at (130,0) width 51: "1-------3"
      RenderBlock {DIV} at (0,60) size 784x22
        RenderText {#text} at (0,0) size 181x22
          text run at (0,0) width 181: "1.1 - 12 - 1.3--       --1-------3"
