layer at (0,0) size 800x600
  RenderView at (0,0) size 800x600
layer at (0,0) size 800x600
  RenderSVGRoot {svg} at (0,0) size 519x156
    RenderSVGHiddenContainer {defs} at (0,0) size 0x0
      RenderSVGResourcePattern {pattern} [id="cycle2"] [patternUnits=userSpaceOnUse] [patternContentUnits=userSpaceOnUse]
        RenderSVGPath {rect} at (0,0) size 51x31 [stroke={[type=SOLID] [color=#008000]}] [fill={[type=SOLID] [color=#0000FF]}] [x=0.00] [y=0.00] [width=50.00] [height=30.00]
      RenderSVGResourcePattern {pattern} [id="cycle1"] [patternUnits=userSpaceOnUse] [patternContentUnits=userSpaceOnUse]
    RenderSVGPath {rect} at (0,0) size 100x100 [fill={[type=PATTERN] [id="cycle1"]}] [x=0.00] [y=0.00] [width=100.00] [height=100.00]
    RenderSVGText {text} at (10,134) size 509x22 contains 1 chunk(s)
      RenderSVGInlineText {#text} at (0,0) size 509x22
        chunk 1 text run 1 at (10.00,150.00) startOffset 0 endOffset 75 width 509.00: "The square above should show a pattern now that fill fallback is supported."
