layer at (0,0) size 800x600
  RenderView at (0,0) size 800x600
layer at (0,0) size 800x600
  RenderBlock {HTML} at (0,0) size 800x600
    RenderBody {BODY} at (8,8) size 784x584
      RenderBlock {P} at (0,0) size 784x44
        RenderText {#text} at (0,0) size 782x44
          text run at (0,0) width 782: "This tests for a bug where newlines would not be preserved during copy/paste. Below you should see two paragaphs"
          text run at (0,22) width 524: "containing \"Hello World!\" and an empty third paragraph with the caret in it."
      RenderBlock {DIV} at (0,60) size 784x66
        RenderBlock (anonymous) at (0,0) size 784x22
          RenderText {#text} at (0,0) size 88x22
            text run at (0,0) width 88: "Hello World!"
        RenderBlock {DIV} at (0,22) size 784x22
          RenderText {#text} at (0,0) size 88x22
            text run at (0,0) width 88: "Hello World!"
        RenderBlock {DIV} at (0,44) size 784x22
          RenderBR {BR} at (0,0) size 0x22
caret: position 0 of child 0 {BR} of child 2 {DIV} of child 2 {DIV} of body
