layer at (0,0) size 800x600
  RenderView at (0,0) size 800x600
layer at (0,0) size 800x600
  RenderBlock {HTML} at (0,0) size 800x600
    RenderBody {BODY} at (8,8) size 784x584
      RenderTable {TABLE} at (0,0) size 72x50 [border: none]
        RenderTableSection {TBODY} at (0,0) size 71x49
          RenderTableRow {TR} at (0,0) size 71x25
            RenderTableCell {TD} at (0,0) size 36x25 [border: (1px none #000000)] [r=0 c=0 rs=1 cs=1]
              RenderText {#text} at (2,2) size 33x22
                text run at (2,2) width 33: "rules"
            RenderTableCell {TD} at (36,0) size 35x25 [border: (1px none #000000)] [r=0 c=1 rs=1 cs=1]
              RenderText {#text} at (1,2) size 33x22
                text run at (1,2) width 33: "none"
          RenderTableRow {TR} at (0,25) size 71x24
            RenderTableCell {TD} at (0,25) size 36x24 [border: none] [r=1 c=0 rs=1 cs=1]
              RenderText {#text} at (2,1) size 33x22
                text run at (2,1) width 33: "rules"
            RenderTableCell {TD} at (36,25) size 35x24 [r=1 c=1 rs=1 cs=1]
              RenderText {#text} at (1,1) size 33x22
                text run at (1,1) width 33: "none"
      RenderBlock (anonymous) at (0,50) size 784x22
        RenderBR {BR} at (0,0) size 0x22
      RenderTable {TABLE} at (0,72) size 123x99 [border: none]
        RenderTableSection {TBODY} at (0,0) size 122x49 [border: (1px solid #808080) none (1px solid #808080) none]
          RenderTableRow {TR} at (0,0) size 122x25
            RenderTableCell {TD} at (0,0) size 36x25 [border: (1px none #000000)] [r=0 c=0 rs=1 cs=1]
              RenderText {#text} at (2,2) size 33x22
                text run at (2,2) width 33: "rules"
            RenderTableCell {TD} at (36,0) size 86x25 [border: (1px none #000000)] [r=0 c=1 rs=1 cs=1]
              RenderText {#text} at (1,2) size 84x22
                text run at (1,2) width 84: "row group 1"
          RenderTableRow {TR} at (0,25) size 122x24
            RenderTableCell {TD} at (0,25) size 36x24 [border: none] [r=1 c=0 rs=1 cs=1]
              RenderText {#text} at (2,1) size 33x22
                text run at (2,1) width 33: "rules"
            RenderTableCell {TD} at (36,25) size 86x24 [r=1 c=1 rs=1 cs=1]
              RenderText {#text} at (1,1) size 84x22
                text run at (1,1) width 84: "row group 1"
        RenderTableSection {TBODY} at (0,49) size 122x49 [border: (1px solid #808080) none (1px solid #808080) none]
          RenderTableRow {TR} at (0,0) size 122x25
            RenderTableCell {TD} at (0,0) size 36x25 [border: (1px none #000000)] [r=0 c=0 rs=1 cs=1]
              RenderText {#text} at (2,2) size 33x22
                text run at (2,2) width 33: "rules"
            RenderTableCell {TD} at (36,0) size 86x25 [border: (1px none #000000)] [r=0 c=1 rs=1 cs=1]
              RenderText {#text} at (1,2) size 84x22
                text run at (1,2) width 84: "row group 2"
          RenderTableRow {TR} at (0,25) size 122x24
            RenderTableCell {TD} at (0,25) size 36x24 [border: none] [r=1 c=0 rs=1 cs=1]
              RenderText {#text} at (2,1) size 33x22
                text run at (2,1) width 33: "rules"
            RenderTableCell {TD} at (36,25) size 86x24 [r=1 c=1 rs=1 cs=1]
              RenderText {#text} at (1,1) size 84x22
                text run at (1,1) width 84: "row group 2"
      RenderBlock (anonymous) at (0,171) size 784x22
        RenderBR {BR} at (0,0) size 0x22
      RenderTable {TABLE} at (0,193) size 229x50 [border: none]
        RenderTableCol {COLGROUP} at (0,0) size 0x0 [border: (1px solid #000000) none (1px solid #000000)]
          RenderTableCol {COL} at (0,0) size 0x0
          RenderTableCol {COL} at (0,0) size 0x0
        RenderTableCol {COLGROUP} at (0,0) size 0x0 [border: (1px solid #000000) none (1px solid #000000)]
          RenderTableCol {COL} at (0,0) size 0x0
          RenderTableCol {COL} at (0,0) size 0x0
        RenderTableSection {TBODY} at (0,0) size 228x49 [border: (1px solid #808080) none (1px solid #808080) none]
          RenderTableRow {TR} at (0,0) size 228x25
            RenderTableCell {TD} at (0,0) size 36x25 [border: (1px none #000000)] [r=0 c=0 rs=1 cs=1]
              RenderText {#text} at (2,2) size 33x22
                text run at (2,2) width 33: "rules"
            RenderTableCell {TD} at (36,0) size 78x25 [border: (1px none #000000)] [r=0 c=1 rs=1 cs=1]
              RenderText {#text} at (1,2) size 76x22
                text run at (1,2) width 76: "col group 1"
            RenderTableCell {TD} at (114,0) size 36x25 [border: (1px none #000000)] [r=0 c=2 rs=1 cs=1]
              RenderText {#text} at (2,2) size 33x22
                text run at (2,2) width 33: "rules"
            RenderTableCell {TD} at (150,0) size 78x25 [border: (1px none #000000)] [r=0 c=3 rs=1 cs=1]
              RenderText {#text} at (1,2) size 76x22
                text run at (1,2) width 76: "col group 2"
          RenderTableRow {TR} at (0,25) size 228x24
            RenderTableCell {TD} at (0,25) size 36x24 [border: none] [r=1 c=0 rs=1 cs=1]
              RenderText {#text} at (2,1) size 33x22
                text run at (2,1) width 33: "rules"
            RenderTableCell {TD} at (36,25) size 78x24 [r=1 c=1 rs=1 cs=1]
              RenderText {#text} at (1,1) size 76x22
                text run at (1,1) width 76: "col group 1"
            RenderTableCell {TD} at (114,25) size 36x24 [border: none] [r=1 c=2 rs=1 cs=1]
              RenderText {#text} at (2,1) size 33x22
                text run at (2,1) width 33: "rules"
            RenderTableCell {TD} at (150,25) size 78x24 [r=1 c=3 rs=1 cs=1]
              RenderText {#text} at (1,1) size 76x22
                text run at (1,1) width 76: "col group 2"
      RenderBlock (anonymous) at (0,243) size 784x22
        RenderBR {BR} at (0,0) size 0x22
      RenderTable {TABLE} at (0,265) size 72x51 [border: none]
        RenderTableSection {TBODY} at (0,0) size 71x50
          RenderTableRow {TR} at (0,0) size 71x25
            RenderTableCell {TD} at (0,0) size 36x25 [border: (1px solid #808080) none none (1px none #808080)] [r=0 c=0 rs=1 cs=1]
              RenderText {#text} at (2,2) size 33x22
                text run at (2,2) width 33: "rules"
            RenderTableCell {TD} at (36,0) size 35x25 [border: (1px solid #808080) none none none] [r=0 c=1 rs=1 cs=1]
              RenderText {#text} at (1,2) size 33x22
                text run at (1,2) width 33: "rows"
          RenderTableRow {TR} at (0,25) size 71x25
            RenderTableCell {TD} at (0,25) size 36x25 [border: (1px solid #808080) none none (1px none #808080)] [r=1 c=0 rs=1 cs=1]
              RenderText {#text} at (2,2) size 33x22
                text run at (2,2) width 33: "rules"
            RenderTableCell {TD} at (36,25) size 35x25 [border: (1px solid #808080) none none none] [r=1 c=1 rs=1 cs=1]
              RenderText {#text} at (1,2) size 33x22
                text run at (1,2) width 33: "rows"
      RenderBlock (anonymous) at (0,316) size 784x22
        RenderBR {BR} at (0,0) size 0x22
      RenderTable {TABLE} at (0,338) size 65x50 [border: none]
        RenderTableSection {TBODY} at (0,0) size 64x49
          RenderTableRow {TR} at (0,0) size 64x25
            RenderTableCell {TD} at (0,0) size 36x25 [border: (1px none #808080) none none (1px solid #808080)] [r=0 c=0 rs=1 cs=1]
              RenderText {#text} at (2,2) size 33x22
                text run at (2,2) width 33: "rules"
            RenderTableCell {TD} at (36,0) size 28x25 [border: (1px none #808080) none none (1px solid #808080)] [r=0 c=1 rs=1 cs=1]
              RenderText {#text} at (2,2) size 25x22
                text run at (2,2) width 25: "cols"
          RenderTableRow {TR} at (0,25) size 64x24
            RenderTableCell {TD} at (0,25) size 36x24 [border: none none none (1px solid #808080)] [r=1 c=0 rs=1 cs=1]
              RenderText {#text} at (2,1) size 33x22
                text run at (2,1) width 33: "rules"
            RenderTableCell {TD} at (36,25) size 28x24 [border: none none none (1px solid #808080)] [r=1 c=1 rs=1 cs=1]
              RenderText {#text} at (2,1) size 25x22
                text run at (2,1) width 25: "cols"
      RenderBlock (anonymous) at (0,388) size 784x22
        RenderBR {BR} at (0,0) size 0x22
      RenderTable {TABLE} at (0,410) size 56x51 [border: none]
        RenderTableSection {TBODY} at (0,0) size 55x50
          RenderTableRow {TR} at (0,0) size 55x25
            RenderTableCell {TD} at (0,0) size 36x25 [border: (1px solid #808080)] [r=0 c=0 rs=1 cs=1]
              RenderText {#text} at (2,2) size 33x22
                text run at (2,2) width 33: "rules"
            RenderTableCell {TD} at (36,0) size 19x25 [border: (1px solid #808080)] [r=0 c=1 rs=1 cs=1]
              RenderText {#text} at (2,2) size 16x22
                text run at (2,2) width 16: "all"
          RenderTableRow {TR} at (0,25) size 55x25
            RenderTableCell {TD} at (0,25) size 36x25 [border: (1px solid #808080)] [r=1 c=0 rs=1 cs=1]
              RenderText {#text} at (2,2) size 33x22
                text run at (2,2) width 33: "rules"
            RenderTableCell {TD} at (36,25) size 19x25 [border: (1px solid #808080)] [r=1 c=1 rs=1 cs=1]
              RenderText {#text} at (2,2) size 16x22
                text run at (2,2) width 16: "all"
      RenderBlock (anonymous) at (0,461) size 784x22
        RenderBR {BR} at (0,0) size 0x22
