layer at (0,0) size 480x360
  RenderView at (0,0) size 480x360
layer at (0,0) size 480x360
  RenderSVGRoot {svg} at (0,0) size 480x360
    RenderSVGContainer {g} at (0,5) size 480x295
      RenderSVGViewportContainer {svg} at (0,5) size 480x295
        RenderSVGHiddenContainer {defs} at (0,0) size 0x0
          RenderSVGResourceLinearGradient {linearGradient} [id="MyGradient"] [gradientUnits=userSpaceOnUse] [start=(20,0)] [end=(760,0)]
            RenderSVGGradientStop {stop} [offset=0.00] [color=#DD00DD]
            RenderSVGGradientStop {stop} [offset=0.33] [color=#22CC22]
            RenderSVGGradientStop {stop} [offset=0.67] [color=#400000]
            RenderSVGGradientStop {stop} [offset=1.00] [color=#A0A0FF]
          RenderSVGResourceFilter {filter} [id="Matrix"] [filterUnits=objectBoundingBox] [primitiveUnits=userSpaceOnUse]
            [feColorMatrix type="MATRIX" values="0.33 0.33 0.33 0.00 0.00 0.33 0.33 0.33 0.00 0.00 0.33 0.33 0.33 0.00 0.00 0.33 0.33 0.33 0.00 0.00"]
              [SourceGraphic]
          RenderSVGResourceFilter {filter} [id="Saturate40"] [filterUnits=objectBoundingBox] [primitiveUnits=userSpaceOnUse]
            [feColorMatrix type="SATURATE" values="0.25"]
              [SourceGraphic]
          RenderSVGResourceFilter {filter} [id="HueRotate90"] [filterUnits=objectBoundingBox] [primitiveUnits=userSpaceOnUse]
            [feColorMatrix type="HUEROTATE" values="90.00"]
              [SourceGraphic]
          RenderSVGResourceFilter {filter} [id="LuminanceToAlpha"] [filterUnits=objectBoundingBox] [primitiveUnits=userSpaceOnUse]
            [feComposite operation="IN"]
              [SourceGraphic]
              [feColorMatrix type="LUMINANCETOALPHA"]
                [SourceGraphic]
        RenderSVGContainer {g} at (0,5) size 480x295
          RenderSVGPath {rect} at (8,5) size 464x290 [stroke={[type=SOLID] [color=#0000FF]}] [x=1.00] [y=1.00] [width=798.00] [height=498.00]
          RenderSVGPath {rect} at (19,16) size 442x24 [fill={[type=LINEAR-GRADIENT] [id="MyGradient"]}] [x=20.00] [y=20.00] [width=760.00] [height=40.00]
          RenderSVGText {text} at (20,57) size 192x51 contains 1 chunk(s)
            RenderSVGInlineText {#text} at (0,0) size 192x51
              chunk 1 text run 1 at (20.00,95.00) startOffset 0 endOffset 10 width 191.38: "Unfiltered"
          RenderSVGPath {rect} at (19,74) size 442x24 [fill={[type=LINEAR-GRADIENT] [id="MyGradient"]}] [x=20.00] [y=120.00] [width=760.00] [height=40.00]
            [filter="Matrix"] RenderSVGResourceFilter {filter} at (20,120) size 760x40
          RenderSVGText {text} at (20,157) size 618x51 contains 1 chunk(s)
            RenderSVGInlineText {#text} at (0,0) size 618x51
              chunk 1 text run 1 at (20.00,195.00) startOffset 0 endOffset 32 width 617.24: "type=\"matrix\" (grayscale matrix)"
          RenderSVGPath {rect} at (0,131) size 480x26 [fill={[type=LINEAR-GRADIENT] [id="MyGradient"]}] [x=20.00] [y=220.00] [width=760.00] [height=40.00]
            [filter="Saturate40"] RenderSVGResourceFilter {filter} at (-18,218) size 836x44
          RenderSVGText {text} at (20,257) size 526x51 contains 1 chunk(s)
            RenderSVGInlineText {#text} at (0,0) size 526x51
              chunk 1 text run 1 at (20.00,295.00) startOffset 0 endOffset 27 width 525.86: "type=\"saturate\" values=\".4\""
          RenderSVGPath {rect} at (0,189) size 480x26 [fill={[type=LINEAR-GRADIENT] [id="MyGradient"]}] [x=20.00] [y=320.00] [width=760.00] [height=40.00]
            [filter="HueRotate90"] RenderSVGResourceFilter {filter} at (-18,318) size 836x44
          RenderSVGText {text} at (20,357) size 576x51 contains 1 chunk(s)
            RenderSVGInlineText {#text} at (0,0) size 576x51
              chunk 1 text run 1 at (20.00,395.00) startOffset 0 endOffset 28 width 575.86: "type=\"hueRotate\" values=\"90\""
          RenderSVGPath {rect} at (0,247) size 480x26 [fill={[type=LINEAR-GRADIENT] [id="MyGradient"]}] [x=20.00] [y=420.00] [width=760.00] [height=40.00]
            [filter="LuminanceToAlpha"] RenderSVGResourceFilter {filter} at (-18,418) size 836x44
          RenderSVGText {text} at (20,457) size 500x51 contains 1 chunk(s)
            RenderSVGInlineText {#text} at (0,0) size 500x51
              chunk 1 text run 1 at (20.00,495.00) startOffset 0 endOffset 23 width 500.00: "type=\"luminanceToAlpha\""
    RenderSVGText {text} at (10,301) size 270x53 contains 1 chunk(s)
      RenderSVGInlineText {#text} at (0,0) size 270x53
        chunk 1 text run 1 at (10.00,340.00) startOffset 0 endOffset 16 width 270.00: "$Revision: 1.6 $"
    RenderSVGPath {rect} at (0,0) size 480x360 [stroke={[type=SOLID] [color=#000000]}] [x=1.00] [y=1.00] [width=478.00] [height=358.00]
