layer at (0,0) size 480x360
  RenderView at (0,0) size 480x360
layer at (0,0) size 480x360
  RenderSVGRoot {svg} at (0,0) size 480x360
    RenderSVGContainer {g} at (82,0) size 328x335
      RenderSVGHiddenContainer {defs} at (0,0) size 0x0
      RenderSVGText {text} at (82,0) size 316x34 contains 1 chunk(s)
        RenderSVGInlineText {#text} at (0,0) size 146x34
          chunk 1 (middle anchor) text run 1 at (82.50,25.00) startOffset 0 endOffset 12 width 145.00: "Text Cursor "
        RenderSVGInline {a} at (0,0) size 171x34
          RenderSVGInlineText {#text} at (145,0) size 171x34
            chunk 1 (middle anchor) text run 1 at (227.50,25.00) startOffset 0 endOffset 14 width 170.00: "Pointer Cursor"
        RenderSVGInlineText {#text} at (0,0) size 0x0
      RenderSVGPath {rect} at (118,38) size 244x240 [stroke={[type=SOLID] [color=#666666] [stroke width=3.00]}] [x=120.00] [y=40.00] [width=240.00] [height=236.00]
      RenderSVGContainer {g} at (148,70) size 184x176
        RenderSVGContainer {g} at (148,70) size 81x32
          RenderSVGPath {rect} at (148,70) size 80x32 [fill={[type=SOLID] [color=#666666]}] [x=148.00] [y=70.00] [width=80.00] [height=32.00]
          RenderSVGText {text} at (154,74) size 75x21 contains 1 chunk(s)
            RenderSVGInlineText {#text} at (0,0) size 75x21
              chunk 1 text run 1 at (154.00,90.00) startOffset 0 endOffset 9 width 75.00: "crosshair"
        RenderSVGContainer {g} at (148,118) size 80x32
          RenderSVGPath {rect} at (148,118) size 80x32 [fill={[type=SOLID] [color=#666666]}] [x=148.00] [y=118.00] [width=80.00] [height=32.00]
          RenderSVGText {text} at (154,122) size 57x21 contains 1 chunk(s)
            RenderSVGInlineText {#text} at (0,0) size 57x21
              chunk 1 text run 1 at (154.00,138.00) startOffset 0 endOffset 7 width 57.00: "default"
        RenderSVGContainer {g} at (148,166) size 80x32
          RenderSVGPath {rect} at (148,166) size 80x32 [fill={[type=SOLID] [color=#666666]}] [x=148.00] [y=166.00] [width=80.00] [height=32.00]
          RenderSVGText {text} at (154,170) size 60x21 contains 1 chunk(s)
            RenderSVGInlineText {#text} at (0,0) size 60x21
              chunk 1 text run 1 at (154.00,186.00) startOffset 0 endOffset 7 width 60.00: "pointer"
        RenderSVGContainer {g} at (148,214) size 80x32
          RenderSVGPath {rect} at (148,214) size 80x32 [fill={[type=SOLID] [color=#666666]}] [x=148.00] [y=214.00] [width=80.00] [height=32.00]
          RenderSVGText {text} at (154,219) size 45x21 contains 1 chunk(s)
            RenderSVGInlineText {#text} at (0,0) size 45x21
              chunk 1 text run 1 at (154.00,235.00) startOffset 0 endOffset 4 width 45.00: "move"
        RenderSVGContainer {g} at (252,70) size 80x32
          RenderSVGPath {rect} at (252,70) size 80x32 [fill={[type=SOLID] [color=#666666]}] [x=252.00] [y=70.00] [width=80.00] [height=32.00]
          RenderSVGText {text} at (258,74) size 33x21 contains 1 chunk(s)
            RenderSVGInlineText {#text} at (0,0) size 33x21
              chunk 1 text run 1 at (258.00,90.00) startOffset 0 endOffset 4 width 33.00: "text"
        RenderSVGContainer {g} at (252,118) size 80x32
          RenderSVGPath {rect} at (252,118) size 80x32 [fill={[type=SOLID] [color=#666666]}] [x=252.00] [y=118.00] [width=80.00] [height=32.00]
          RenderSVGText {text} at (258,122) size 35x21 contains 1 chunk(s)
            RenderSVGInlineText {#text} at (0,0) size 35x21
              chunk 1 text run 1 at (258.00,138.00) startOffset 0 endOffset 4 width 35.00: "wait"
        RenderSVGContainer {g} at (252,166) size 80x32
          RenderSVGPath {rect} at (252,166) size 80x32 [fill={[type=SOLID] [color=#666666]}] [x=252.00] [y=166.00] [width=80.00] [height=32.00]
          RenderSVGText {text} at (258,170) size 35x21 contains 1 chunk(s)
            RenderSVGInlineText {#text} at (0,0) size 35x21
              chunk 1 text run 1 at (258.00,186.00) startOffset 0 endOffset 4 width 35.00: "help"
        RenderSVGContainer {g} at (252,214) size 80x32
          RenderSVGPath {rect} at (252,214) size 80x32 [fill={[type=SOLID] [color=#666666]}] [x=252.00] [y=214.00] [width=80.00] [height=32.00]
          RenderSVGText {text} at (258,219) size 43x21 contains 1 chunk(s)
            RenderSVGInlineText {#text} at (0,0) size 43x21
              chunk 1 text run 1 at (258.00,235.00) startOffset 0 endOffset 5 width 43.00: "<url>"
      RenderSVGContainer {g} at (115,35) size 250x246
        RenderSVGPath {polygon} at (115,35) size 35x35 [stroke={[type=SOLID] [color=#000000]}] [fill={[type=SOLID] [color=#990000]}] [points="116 36 116 68 148 36"]
        RenderSVGPath {polygon} at (330,35) size 35x35 [stroke={[type=SOLID] [color=#000000]}] [fill={[type=SOLID] [color=#990000]}] [points="364 36 364 68 332 36"]
        RenderSVGPath {polygon} at (330,246) size 35x35 [stroke={[type=SOLID] [color=#000000]}] [fill={[type=SOLID] [color=#990000]}] [points="364 280 332 280 364 248"]
        RenderSVGPath {polygon} at (115,246) size 35x35 [stroke={[type=SOLID] [color=#000000]}] [fill={[type=SOLID] [color=#990000]}] [points="116 280 148 280 116 248"]
        RenderSVGPath {polygon} at (339,132) size 26x52 [stroke={[type=SOLID] [color=#000000]}] [fill={[type=SOLID] [color=#990000]}] [points="340 134 340 182 364 158"]
        RenderSVGPath {polygon} at (115,132) size 26x52 [stroke={[type=SOLID] [color=#000000]}] [fill={[type=SOLID] [color=#990000]}] [points="116 158 140 134 140 182"]
        RenderSVGPath {polygon} at (212,35) size 54x29 [stroke={[type=SOLID] [color=#000000]}] [fill={[type=SOLID] [color=#990000]}] [points="240 36 264 63.3 214 63.3"]
        RenderSVGPath {polygon} at (212,252) size 54x29 [stroke={[type=SOLID] [color=#000000]}] [fill={[type=SOLID] [color=#990000]}] [points="240 280 264 252.7 214 252.7"]
      RenderSVGContainer {g} at (370,295) size 40x40
        RenderSVGPath {circle} at (374,299) size 32x32 [fill={[type=SOLID] [color=#FFFFCC]}] [cx=390.00] [cy=315.00] [r=16.00]
        RenderSVGPath {polyline} at (389,295) size 2x40 [stroke={[type=SOLID] [color=#000000]}] [fill={[type=SOLID] [color=#000000]}] [points="390 295 390 335"]
        RenderSVGPath {polyline} at (370,314) size 40x2 [stroke={[type=SOLID] [color=#000000]}] [fill={[type=SOLID] [color=#000000]}] [points="370 315 410 315"]
        RenderSVGPath {circle} at (384,309) size 12x12 [fill={[type=SOLID] [color=#FFFFFF]}] [cx=390.00] [cy=315.00] [r=6.00]
        RenderSVGContainer {a} at (388,313) size 4x4
          RenderSVGPath {circle} at (388,313) size 4x4 [fill={[type=SOLID] [color=#000000]}] [cx=390.00] [cy=315.00] [r=2.00]
    RenderSVGText {text} at (10,301) size 270x53 contains 1 chunk(s)
      RenderSVGInlineText {#text} at (0,0) size 270x53
        chunk 1 text run 1 at (10.00,340.00) startOffset 0 endOffset 16 width 270.00: "$Revision: 1.1 $"
    RenderSVGPath {rect} at (0,0) size 480x360 [stroke={[type=SOLID] [color=#000000]}] [x=1.00] [y=1.00] [width=478.00] [height=358.00]
