layer at (0,0) size 480x360
  RenderView at (0,0) size 480x360
layer at (0,0) size 480x360
  RenderSVGRoot {svg} at (0,0) size 480x360
    RenderSVGContainer {g} at (68,32) size 368x235
      RenderSVGContainer {g} at (68,32) size 368x235 [transform={m=((1.80,0.00)(0.00,1.80)) t=(-360.00,0.00)}]
        RenderSVGText {text} at (288,18) size 67x16 contains 1 chunk(s)
          RenderSVGInlineText {#text} at (0,0) size 67x16
            chunk 1 text run 1 at (288.00,30.00) startOffset 0 endOffset 11 width 66.67: "M, H, V, H,"
        RenderSVGText {text} at (288,34) size 64x16 contains 1 chunk(s)
          RenderSVGInlineText {#text} at (0,0) size 64x16
            chunk 1 text run 1 at (288.00,46.00) startOffset 0 endOffset 11 width 63.89: "V. H, V, H,"
        RenderSVGText {text} at (304,50) size 24x16 contains 1 chunk(s)
          RenderSVGInlineText {#text} at (0,0) size 24x16
            chunk 1 text run 1 at (304.00,62.00) startOffset 0 endOffset 4 width 23.89: "V, Z"
        RenderSVGPath {path} at (70,99) size 166x166 [stroke={[type=SOLID] [color=#000000]}] [data="M 240 56 L 270 56 L 270 86 L 300 86 L 300 116 L 330 116 L 330 146 L 240 146 L 240 56 Z"]
        RenderSVGPath {rect} at (68,97) size 8x8 [fill={[type=SOLID] [color=#FFFF00]}] [x=238.00] [y=54.00] [width=4.00] [height=4.00]
        RenderSVGPath {rect} at (122,97) size 8x8 [fill={[type=SOLID] [color=#FFFF00]}] [x=268.00] [y=54.00] [width=4.00] [height=4.00]
        RenderSVGPath {rect} at (122,151) size 8x8 [fill={[type=SOLID] [color=#FFFF00]}] [x=268.00] [y=84.00] [width=4.00] [height=4.00]
        RenderSVGPath {rect} at (176,151) size 8x8 [fill={[type=SOLID] [color=#FFFF00]}] [x=298.00] [y=84.00] [width=4.00] [height=4.00]
        RenderSVGPath {rect} at (176,205) size 8x8 [fill={[type=SOLID] [color=#FFFF00]}] [x=298.00] [y=114.00] [width=4.00] [height=4.00]
        RenderSVGPath {rect} at (230,205) size 8x8 [fill={[type=SOLID] [color=#FFFF00]}] [x=328.00] [y=114.00] [width=4.00] [height=4.00]
        RenderSVGPath {rect} at (230,259) size 8x8 [fill={[type=SOLID] [color=#FFFF00]}] [x=328.00] [y=144.00] [width=4.00] [height=4.00]
        RenderSVGPath {rect} at (68,259) size 8x8 [fill={[type=SOLID] [color=#FFFF00]}] [x=238.00] [y=144.00] [width=4.00] [height=4.00]
        RenderSVGPath {path} at (270,100) size 162x163 [fill={[type=SOLID] [color=#0000FF]}] [data="M 350 56 L 380 56 L 380 86 L 410 86 L 410 116 L 440 116 L 440 146 L 350 146 L 350 56 Z"]
        RenderSVGPath {rect} at (266,97) size 8x8 [fill={[type=SOLID] [color=#FFFF00]}] [x=348.00] [y=54.00] [width=4.00] [height=4.00]
        RenderSVGPath {rect} at (320,97) size 8x8 [fill={[type=SOLID] [color=#FFFF00]}] [x=378.00] [y=54.00] [width=4.00] [height=4.00]
        RenderSVGPath {rect} at (320,151) size 8x8 [fill={[type=SOLID] [color=#FFFF00]}] [x=378.00] [y=84.00] [width=4.00] [height=4.00]
        RenderSVGPath {rect} at (374,151) size 8x8 [fill={[type=SOLID] [color=#FFFF00]}] [x=408.00] [y=84.00] [width=4.00] [height=4.00]
        RenderSVGPath {rect} at (374,205) size 8x8 [fill={[type=SOLID] [color=#FFFF00]}] [x=408.00] [y=114.00] [width=4.00] [height=4.00]
        RenderSVGPath {rect} at (428,205) size 8x8 [fill={[type=SOLID] [color=#FFFF00]}] [x=438.00] [y=114.00] [width=4.00] [height=4.00]
        RenderSVGPath {rect} at (428,259) size 8x8 [fill={[type=SOLID] [color=#FFFF00]}] [x=438.00] [y=144.00] [width=4.00] [height=4.00]
        RenderSVGPath {rect} at (266,259) size 8x8 [fill={[type=SOLID] [color=#FFFF00]}] [x=348.00] [y=144.00] [width=4.00] [height=4.00]
    RenderSVGText {text} at (10,301) size 270x53 contains 1 chunk(s)
      RenderSVGInlineText {#text} at (0,0) size 270x53
        chunk 1 text run 1 at (10.00,340.00) startOffset 0 endOffset 16 width 270.00: "$Revision: 1.7 $"
    RenderSVGPath {rect} at (0,0) size 480x360 [stroke={[type=SOLID] [color=#000000]}] [x=1.00] [y=1.00] [width=478.00] [height=358.00]
