layer at (0,0) size 784x1412
  RenderView at (0,0) size 784x600
layer at (0,0) size 784x1412
  RenderBlock {HTML} at (0,0) size 784x1412
    RenderBody {BODY} at (8,8) size 768x1396 [bgcolor=#CCCCCC]
      RenderBlock {P} at (0,0) size 768x22
        RenderText {#text} at (0,0) size 380x22
          text run at (0,0) width 380: "The style declarations which apply to the text below are:"
      RenderBlock {PRE} at (0,38) size 768x187
        RenderText {#text} at (0,0) size 319x187
          text run at (0,0) width 281: ".one {text-indent: 0.5in; background: aqua;}"
          text run at (281,0) width 0: " "
          text run at (0,17) width 274: ".two {text-indent: 2cm; background: aqua;}"
          text run at (274,17) width 0: " "
          text run at (0,34) width 299: ".three {text-indent: 20mm; background: aqua;}"
          text run at (299,34) width 0: " "
          text run at (0,51) width 280: ".four {text-indent: 24pt; background: aqua;}"
          text run at (280,51) width 0: " "
          text run at (0,68) width 270: ".five {text-indent: 2pc; background: aqua;}"
          text run at (270,68) width 0: " "
          text run at (0,85) width 270: ".six {text-indent: 2em; background: aqua;}"
          text run at (270,85) width 0: " "
          text run at (0,102) width 284: ".seven {text-indent: 2ex; background: aqua;}"
          text run at (284,102) width 0: " "
          text run at (0,119) width 285: ".eight {text-indent: 50%; background: aqua;}"
          text run at (285,119) width 0: " "
          text run at (0,136) width 285: ".nine {text-indent: 25px; background: aqua;}"
          text run at (285,136) width 0: " "
          text run at (0,153) width 319: "blockquote {text-indent: 50%; background: aqua;}"
          text run at (319,153) width 0: " "
          text run at (0,170) width 0: " "
      RenderBlock {HR} at (0,238) size 768x2 [border: (1px inset #000000)]
      RenderBlock {P} at (0,256) size 768x22 [bgcolor=#00FFFF]
        RenderText {#text} at (48,0) size 412x22
          text run at (48,0) width 412: "The first line of this sentence should be indented half an inch."
      RenderBlock {P} at (0,294) size 768x22 [bgcolor=#00FFFF]
        RenderText {#text} at (75,0) size 438x22
          text run at (75,0) width 438: "The first line of this sentence should be indented two centimeters."
      RenderBlock {P} at (0,332) size 768x22 [bgcolor=#00FFFF]
        RenderText {#text} at (75,0) size 456x22
          text run at (75,0) width 456: "The first line of this sentence should be indented twenty millimeters."
      RenderBlock {P} at (0,370) size 768x22 [bgcolor=#00FFFF]
        RenderText {#text} at (32,0) size 457x22
          text run at (32,0) width 457: "The first line of this sentence should be indented twenty-four points."
      RenderBlock {P} at (0,408) size 768x22 [bgcolor=#00FFFF]
        RenderText {#text} at (32,0) size 395x22
          text run at (32,0) width 395: "The first line of this sentence should be indented two picas."
      RenderBlock {P} at (0,446) size 768x22 [bgcolor=#00FFFF]
        RenderText {#text} at (32,0) size 381x22
          text run at (32,0) width 381: "The first line of this sentence should be indented two em."
      RenderBlock {P} at (0,484) size 768x22 [bgcolor=#00FFFF]
        RenderText {#text} at (14,0) size 376x22
          text run at (14,0) width 376: "The first line of this sentence should be indented two ex."
      RenderBlock {P} at (0,522) size 768x44 [bgcolor=#00FFFF]
        RenderText {#text} at (384,0) size 766x44
          text run at (384,0) width 382: "The first line of this sentence should be indented halfway"
          text run at (0,22) width 596: "across the page, but the rest of it should be flush with the normal left margin of the page."
      RenderBlock {P} at (0,582) size 768x44 [bgcolor=#00FFFF]
        RenderText {#text} at (25,0) size 744x44
          text run at (25,0) width 719: "The first line of this sentence should be indented 25 pixels, but the rest of it should be flush with the normal"
          text run at (0,22) width 156: "left margin of the page."
      RenderBlock {P} at (0,642) size 768x66 [bgcolor=#00FFFF]
        RenderText {#text} at (48,0) size 443x22
          text run at (48,0) width 443: "Only the first line of this sentence should be indented half an inch,"
        RenderBR {BR} at (491,16) size 0x0
        RenderText {#text} at (0,22) size 283x22
          text run at (0,22) width 283: "no matter where the lines might start, and"
        RenderBR {BR} at (283,38) size 0x0
        RenderInline {EM} at (0,0) size 204x22
          RenderText {#text} at (0,44) size 204x22
            text run at (0,44) width 204: "regardless of any other markup"
        RenderText {#text} at (204,44) size 156x22
          text run at (204,44) width 156: " which may be present."
      RenderBlock {BLOCKQUOTE} at (40,724) size 688x66 [bgcolor=#00FFFF]
        RenderText {#text} at (384,0) size 682x66
          text run at (384,0) width 238: "In the first half of the test page, this"
          text run at (0,22) width 682: "BLOCKQUOTE element should have a text indent equal to 50% of the BODY element's width, since"
          text run at (0,44) width 535: "BLOCKQUOTE is a child of BODY; in the second half, it is a child of TABLE."
      RenderTable {TABLE} at (0,806) size 768x590 [border: (1px outset #808080)]
        RenderTableSection {TBODY} at (1,1) size 766x588
          RenderTableRow {TR} at (0,0) size 766x30
            RenderTableCell {TD} at (0,0) size 766x30 [bgcolor=#C0C0C0] [border: (1px inset #808080)] [r=0 c=0 rs=1 cs=2]
              RenderInline {STRONG} at (0,0) size 163x22
                RenderText {#text} at (4,4) size 163x22
                  text run at (4,4) width 163: "TABLE Testing Section"
          RenderTableRow {TR} at (0,30) size 766x558
            RenderTableCell {TD} at (0,294) size 12x30 [bgcolor=#C0C0C0] [border: (1px inset #808080)] [r=1 c=0 rs=1 cs=1]
              RenderText {#text} at (4,4) size 4x22
                text run at (4,4) width 4: " "
            RenderTableCell {TD} at (12,30) size 754x558 [border: (1px inset #808080)] [r=1 c=1 rs=1 cs=1]
              RenderBlock {P} at (4,4) size 746x22 [bgcolor=#00FFFF]
                RenderText {#text} at (48,0) size 412x22
                  text run at (48,0) width 412: "The first line of this sentence should be indented half an inch."
              RenderBlock {P} at (4,42) size 746x22 [bgcolor=#00FFFF]
                RenderText {#text} at (75,0) size 438x22
                  text run at (75,0) width 438: "The first line of this sentence should be indented two centimeters."
              RenderBlock {P} at (4,80) size 746x22 [bgcolor=#00FFFF]
                RenderText {#text} at (75,0) size 456x22
                  text run at (75,0) width 456: "The first line of this sentence should be indented twenty millimeters."
              RenderBlock {P} at (4,118) size 746x22 [bgcolor=#00FFFF]
                RenderText {#text} at (32,0) size 457x22
                  text run at (32,0) width 457: "The first line of this sentence should be indented twenty-four points."
              RenderBlock {P} at (4,156) size 746x22 [bgcolor=#00FFFF]
                RenderText {#text} at (32,0) size 395x22
                  text run at (32,0) width 395: "The first line of this sentence should be indented two picas."
              RenderBlock {P} at (4,194) size 746x22 [bgcolor=#00FFFF]
                RenderText {#text} at (32,0) size 381x22
                  text run at (32,0) width 381: "The first line of this sentence should be indented two em."
              RenderBlock {P} at (4,232) size 746x22 [bgcolor=#00FFFF]
                RenderText {#text} at (14,0) size 376x22
                  text run at (14,0) width 376: "The first line of this sentence should be indented two ex."
              RenderBlock {P} at (4,270) size 746x44 [bgcolor=#00FFFF]
                RenderText {#text} at (373,0) size 697x44
                  text run at (373,0) width 324: "The first line of this sentence should be indented"
                  text run at (0,22) width 654: "halfway across the page, but the rest of it should be flush with the normal left margin of the page."
              RenderBlock {P} at (4,330) size 746x44 [bgcolor=#00FFFF]
                RenderText {#text} at (25,0) size 744x44
                  text run at (25,0) width 719: "The first line of this sentence should be indented 25 pixels, but the rest of it should be flush with the normal"
                  text run at (0,22) width 156: "left margin of the page."
              RenderBlock {P} at (4,390) size 746x66 [bgcolor=#00FFFF]
                RenderText {#text} at (48,0) size 443x22
                  text run at (48,0) width 443: "Only the first line of this sentence should be indented half an inch,"
                RenderBR {BR} at (491,16) size 0x0
                RenderText {#text} at (0,22) size 283x22
                  text run at (0,22) width 283: "no matter where the lines might start, and"
                RenderBR {BR} at (283,38) size 0x0
                RenderInline {EM} at (0,0) size 204x22
                  RenderText {#text} at (0,44) size 204x22
                    text run at (0,44) width 204: "regardless of any other markup"
                RenderText {#text} at (204,44) size 156x22
                  text run at (204,44) width 156: " which may be present."
              RenderBlock {BLOCKQUOTE} at (44,472) size 666x66 [bgcolor=#00FFFF]
                RenderText {#text} at (373,0) size 645x66
                  text run at (373,0) width 238: "In the first half of the test page, this"
                  text run at (0,22) width 645: "BLOCKQUOTE element should have a text indent equal to 50% of the BODY element's width,"
                  text run at (0,44) width 572: "since BLOCKQUOTE is a child of BODY; in the second half, it is a child of TABLE."
