layer at (0,0) size 800x600
  RenderView at (0,0) size 800x600
layer at (0,0) size 800x47
  RenderBlock {HTML} at (0,0) size 800x47
    RenderBody {BODY} at (8,8) size 784x31
      RenderMenuList {SELECT} at (2,2) size 35x27 [bgcolor=#FFFFFF]
        RenderBlock (anonymous) at (4,2) size 7x22
          RenderBR at (0,0) size 0x22 [bgcolor=#FFFFFF]
      RenderText {#text} at (0,0) size 0x0
