layer at (0,0) size 480x360
  RenderView at (0,0) size 480x360
layer at (0,0) size 480x360
  RenderSVGRoot {svg} at (0,0) size 480x360
    RenderSVGContainer {g} at (60,22) size 362x315
      RenderSVGText {text} at (360,22) size 49x35 contains 1 chunk(s)
        RenderSVGInlineText {#text} at (0,0) size 49x35
          chunk 1 text run 1 at (360.00,50.00) startOffset 0 endOffset 3 width 49.00: "100"
      RenderSVGText {text} at (360,57) size 53x35 contains 1 chunk(s)
        RenderSVGInlineText {#text} at (0,0) size 53x35
          chunk 1 text run 1 at (360.00,85.00) startOffset 0 endOffset 3 width 53.00: "200"
      RenderSVGText {text} at (360,92) size 53x35 contains 1 chunk(s)
        RenderSVGInlineText {#text} at (0,0) size 53x35
          chunk 1 text run 1 at (360.00,120.00) startOffset 0 endOffset 3 width 53.00: "300"
      RenderSVGText {text} at (360,127) size 53x35 contains 1 chunk(s)
        RenderSVGInlineText {#text} at (0,0) size 53x35
          chunk 1 text run 1 at (360.00,155.00) startOffset 0 endOffset 3 width 53.00: "400"
      RenderSVGText {text} at (360,162) size 52x35 contains 1 chunk(s)
        RenderSVGInlineText {#text} at (0,0) size 52x35
          chunk 1 text run 1 at (360.00,190.00) startOffset 0 endOffset 3 width 52.00: "500"
      RenderSVGText {text} at (360,197) size 61x35 contains 1 chunk(s)
        RenderSVGInlineText {#text} at (0,0) size 61x35
          chunk 1 text run 1 at (360.00,225.00) startOffset 0 endOffset 3 width 61.00: "600"
      RenderSVGText {text} at (360,232) size 59x35 contains 1 chunk(s)
        RenderSVGInlineText {#text} at (0,0) size 59x35
          chunk 1 text run 1 at (360.00,260.00) startOffset 0 endOffset 3 width 59.00: "700"
      RenderSVGText {text} at (360,267) size 62x35 contains 1 chunk(s)
        RenderSVGInlineText {#text} at (0,0) size 62x35
          chunk 1 text run 1 at (360.00,295.00) startOffset 0 endOffset 3 width 62.00: "800"
      RenderSVGText {text} at (360,302) size 61x35 contains 1 chunk(s)
        RenderSVGInlineText {#text} at (0,0) size 61x35
          chunk 1 text run 1 at (360.00,330.00) startOffset 0 endOffset 3 width 61.00: "900"
      RenderSVGText {text} at (60,52) size 177x35 contains 1 chunk(s)
        RenderSVGInlineText {#text} at (0,0) size 177x35
          chunk 1 text run 1 at (60.00,80.00) startOffset 0 endOffset 12 width 177.00: "This is bold"
      RenderSVGText {text} at (60,102) size 190x35 contains 1 chunk(s)
        RenderSVGInlineText {#text} at (0,0) size 190x35
          chunk 1 text run 1 at (60.00,130.00) startOffset 0 endOffset 14 width 190.00: "This is normal"
      RenderSVGContainer {g} at (60,152) size 213x35
        RenderSVGText {text} at (60,152) size 213x35 contains 1 chunk(s)
          RenderSVGInlineText {#text} at (0,0) size 213x35
            chunk 1 text run 1 at (60.00,180.00) startOffset 0 endOffset 14 width 213.00: "Blue is bolder"
      RenderSVGContainer {g} at (60,202) size 184x35
        RenderSVGText {text} at (60,202) size 184x35 contains 1 chunk(s)
          RenderSVGInlineText {#text} at (0,0) size 184x35
            chunk 1 text run 1 at (60.00,230.00) startOffset 0 endOffset 15 width 184.00: "Blue is lighter"
    RenderSVGText {text} at (10,304) size 264x46 contains 1 chunk(s)
      RenderSVGInlineText {#text} at (0,0) size 264x46
        chunk 1 text run 1 at (10.00,340.00) startOffset 0 endOffset 16 width 264.00: "$Revision: 1.7 $"
    RenderSVGPath {rect} at (0,0) size 480x360 [stroke={[type=SOLID] [color=#000000]}] [x=1.00] [y=1.00] [width=478.00] [height=358.00]
