layer at (0,0) size 800x600
  RenderView at (0,0) size 800x600
layer at (0,0) size 800x48
  RenderBlock {html} at (0,0) size 800x48
    RenderBody {body} at (8,8) size 784x32
      RenderTable {table} at (0,0) size 560x32 [border: (1px outset #808080)]
        RenderTableSection (anonymous) at (1,1) size 558x30
          RenderTableRow {tr} at (0,2) size 558x26
            RenderTableCell {td} at (2,2) size 276x26 [bgcolor=#00FF00] [border: (1px inset #808080)] [r=0 c=0 rs=1 cs=1]
              RenderText {#text} at (2,2) size 272x22
                text run at (2,2) width 189: "This cell should have a lime "
                text run at (191,2) width 83: "background"
            RenderTableCell {td} at (280,2) size 276x26 [bgcolor=#00FF00] [border: (1px inset #808080)] [r=0 c=1 rs=1 cs=1]
              RenderText {#text} at (2,2) size 272x22
                text run at (2,2) width 189: "This cell should have a lime "
                text run at (191,2) width 83: "background"
