layer at (0,0) size 800x600
  RenderView at (0,0) size 800x600
layer at (0,0) size 800x600
  RenderSVGRoot {svg} at (0,12) size 712x290
    RenderSVGHiddenContainer {defs} at (0,0) size 0x0
      RenderSVGResourceLinearGradient {linearGradient} [id="g"] [gradientUnits=userSpaceOnUse] [start=(0,0)] [end=(0,600)]
        RenderSVGGradientStop {stop} [offset=0.00] [color=#FF0000]
        RenderSVGGradientStop {stop} [offset=1.00] [color=#00000080]
    RenderSVGText {text} at (0,12) size 647x23 contains 1 chunk(s)
      RenderSVGInlineText {#text} at (0,0) size 647x23
        chunk 1 text run 1 at (0.00,30.00) startOffset 0 endOffset 81 width 647.00: "You should see red, black, red, black text all rotated 45deg, translated by 100px"
    RenderSVGContainer {g} at (0,50) size 76x82 [transform={m=((0.71,0.71)(-0.71,0.71)) t=(0.00,0.00)}]
      RenderSVGText {text} at (50,21) size 78x37 contains 1 chunk(s)
        RenderSVGInlineText {#text} at (0,0) size 78x37
          chunk 1 text run 1 at (50.00,50.00) startOffset 0 endOffset 4 width 78.00: "TEST"
    RenderSVGContainer {g} at (94,50) size 82x82 [transform={m=((1.00,0.00)(0.00,1.00)) t=(100.00,0.00)}]
      RenderSVGContainer {g} at (94,50) size 82x82 [transform={m=((0.71,0.71)(-0.71,0.71)) t=(0.00,0.00)}]
        RenderSVGText {text} at (50,21) size 78x37 contains 1 chunk(s)
          RenderSVGInlineText {#text} at (0,0) size 78x37
            chunk 1 text run 1 at (50.00,50.00) startOffset 0 endOffset 4 width 78.00: "TEST"
    RenderSVGContainer {g} at (194,50) size 82x82 [transform={m=((0.71,0.71)(-0.71,0.71)) t=(200.00,0.00)}]
      RenderSVGText {text} at (50,21) size 78x37 contains 1 chunk(s)
        RenderSVGInlineText {#text} at (0,0) size 78x37
          chunk 1 text run 1 at (50.00,50.00) startOffset 0 endOffset 4 width 78.00: "TEST"
    RenderSVGContainer {g} at (294,50) size 82x82 [transform={m=((0.71,0.71)(-0.71,0.71)) t=(300.00,0.00)}]
      RenderSVGText {text} at (50,21) size 78x37 contains 1 chunk(s)
        RenderSVGInlineText {#text} at (0,0) size 78x37
          chunk 1 text run 1 at (50.00,50.00) startOffset 0 endOffset 4 width 78.00: "TEST"
    RenderSVGText {text} at (0,152) size 712x23 contains 1 chunk(s)
      RenderSVGInlineText {#text} at (0,0) size 712x23
        chunk 1 text run 1 at (0.00,170.00) startOffset 0 endOffset 88 width 712.00: "You should see the same pattern again, just a bit scaled, by the viewBox of an inner svg"
    RenderSVGViewportContainer {svg} at (91,180) size 572x122
      RenderSVGContainer {g} at (91,180) size 122x122 [transform={m=((0.71,0.71)(-0.71,0.71)) t=(0.00,0.00)}]
        RenderSVGText {text} at (100,71) size 76x37 contains 1 chunk(s)
          RenderSVGInlineText {#text} at (0,0) size 76x37
            chunk 1 text run 1 at (100.00,100.00) startOffset 0 endOffset 4 width 76.00: "TEST"
      RenderSVGContainer {g} at (241,180) size 122x122 [transform={m=((1.00,0.00)(0.00,1.00)) t=(100.00,0.00)}]
        RenderSVGContainer {g} at (241,180) size 122x122 [transform={m=((0.71,0.71)(-0.71,0.71)) t=(0.00,0.00)}]
          RenderSVGText {text} at (100,71) size 76x37 contains 1 chunk(s)
            RenderSVGInlineText {#text} at (0,0) size 76x37
              chunk 1 text run 1 at (100.00,100.00) startOffset 0 endOffset 4 width 76.00: "TEST"
      RenderSVGContainer {g} at (391,180) size 122x122 [transform={m=((0.71,0.71)(-0.71,0.71)) t=(200.00,0.00)}]
        RenderSVGText {text} at (100,71) size 76x37 contains 1 chunk(s)
          RenderSVGInlineText {#text} at (0,0) size 76x37
            chunk 1 text run 1 at (100.00,100.00) startOffset 0 endOffset 4 width 76.00: "TEST"
      RenderSVGContainer {g} at (541,180) size 122x122 [transform={m=((0.71,0.71)(-0.71,0.71)) t=(300.00,0.00)}]
        RenderSVGText {text} at (100,71) size 76x37 contains 1 chunk(s)
          RenderSVGInlineText {#text} at (0,0) size 76x37
            chunk 1 text run 1 at (100.00,100.00) startOffset 0 endOffset 4 width 76.00: "TEST"
