layer at (0,0) size 480x360
  RenderView at (0,0) size 480x360
layer at (0,0) size 480x360
  RenderSVGRoot {svg} at (0,0) size 480x360
    RenderSVGContainer {g} at (30,50) size 420x270
      RenderSVGPath {rect} at (30,50) size 90x100 [fill={[type=SOLID] [color=#000000]}] [x=30.00] [y=50.00] [width=90.00] [height=100.00]
      RenderSVGPath {rect} at (140,50) size 90x100 [fill={[type=SOLID] [color=#000000]}] [x=140.00] [y=50.00] [width=90.00] [height=100.00]
      RenderSVGPath {rect} at (250,50) size 90x100 [fill={[type=SOLID] [color=#000000]}] [x=250.00] [y=50.00] [width=90.00] [height=100.00]
      RenderSVGPath {rect} at (360,50) size 90x100 [fill={[type=SOLID] [color=#000000]}] [x=360.00] [y=50.00] [width=90.00] [height=100.00]
      RenderSVGPath {rect} at (100,180) size 280x60 [fill={[type=SOLID] [color=#FF0000]}] [x=100.00] [y=180.00] [width=280.00] [height=60.00]
      RenderSVGPath {rect} at (100,260) size 280x60 [fill={[type=SOLID] [color=#FF0000]}] [x=100.00] [y=260.00] [width=280.00] [height=60.00]
    RenderSVGText {text} at (10,301) size 270x53 contains 1 chunk(s)
      RenderSVGInlineText {#text} at (0,0) size 270x53
        chunk 1 text run 1 at (10.00,340.00) startOffset 0 endOffset 16 width 270.00: "$Revision: 1.2 $"
    RenderSVGPath {rect} at (0,0) size 480x360 [stroke={[type=SOLID] [color=#000000]}] [x=1.00] [y=1.00] [width=478.00] [height=358.00]
