layer at (0,0) size 480x360
  RenderView at (0,0) size 480x360
layer at (0,0) size 480x360
  RenderSVGRoot {svg} at (0,0) size 480x360
    RenderSVGContainer {g} at (0,40) size 480x173 [transform={m=((1.00,0.00)(0.00,1.00)) t=(0.00,30.00)}]
      RenderSVGContainer {g} at (0,40) size 480x173
        RenderSVGContainer {g} at (23,105) size 150x100
          RenderSVGContainer {g} at (23,105) size 150x100 [transform={m=((1.00,0.00)(0.00,1.00)) t=(-102.00,-450.00)}]
            RenderSVGContainer {g} at (18,105) size 158x100 [transform={m=((7.50,0.00)(0.00,5.00)) t=(0.00,0.00)}]
              RenderSVGContainer {g} at (18,105) size 158x100 [transform={m=((1.00,0.00)(0.00,1.00)) t=(16.67,105.00)}]
                RenderSVGPath {rect} at (18,105) size 158x5 [fill={[type=SOLID] [color=#0000FF]}] [x=0.00] [y=0.00] [width=20.00] [height=1.00]
                RenderSVGPath {rect} at (18,105) size 15x100 [fill={[type=SOLID] [color=#FF0000]}] [x=0.00] [y=0.00] [width=0.67] [height=20.00]
        RenderSVGContainer {g} at (0,40) size 480x173 [transform={m=((2.50,0.00)(0.00,2.50)) t=(-600.00,-450.00)}]
          RenderSVGText {text} at (240,184) size 217x22 contains 1 chunk(s)
            RenderSVGInlineText {#text} at (0,0) size 217x22
              chunk 1 text run 1 at (240.00,200.00) startOffset 0 endOffset 34 width 216.40: "scale(25, 95) then translate(2, 2)"
          RenderSVGPath {rect} at (20,100) size 13x13 [fill={[type=SOLID] [color=#000000]}] [x=248.00] [y=208.00] [width=5.00] [height=5.00]
          RenderSVGPath {rect} at (170,100) size 13x13 [fill={[type=SOLID] [color=#0000FF]}] [x=308.00] [y=208.00] [width=5.00] [height=5.00]
          RenderSVGPath {rect} at (20,200) size 13x13 [fill={[type=SOLID] [color=#FF0000]}] [x=248.00] [y=248.00] [width=5.00] [height=5.00]
    RenderSVGText {text} at (10,301) size 270x53 contains 1 chunk(s)
      RenderSVGInlineText {#text} at (0,0) size 270x53
        chunk 1 text run 1 at (10.00,340.00) startOffset 0 endOffset 16 width 270.00: "$Revision: 1.6 $"
    RenderSVGPath {rect} at (0,0) size 480x360 [stroke={[type=SOLID] [color=#000000]}] [x=1.00] [y=1.00] [width=478.00] [height=358.00]
