layer at (0,0) size 480x360
  RenderView at (0,0) size 480x360
layer at (0,0) size 480x360
  RenderSVGRoot {svg} at (0,0) size 480x360
    RenderSVGContainer {g} at (40,100) size 440x165 [transform={m=((1.00,0.00)(0.00,1.00)) t=(0.00,30.00)}]
      RenderSVGContainer {g} at (40,100) size 440x165 [transform={m=((1.00,0.00)(0.00,1.00)) t=(0.00,10.00)}]
        RenderSVGContainer {g} at (65,165) size 300x100 [transform={m=((2.50,0.00)(0.00,2.50)) t=(-560.00,0.00)}]
          RenderSVGContainer {g} at (65,165) size 100x50 [transform={m=((1.00,0.00)(1.00,1.00)) t=(250.00,50.00)}]
            RenderSVGPath {rect} at (65,165) size 55x5 [fill={[type=SOLID] [color=#0000FF]}] [x=0.00] [y=0.00] [width=20.00] [height=2.00]
            RenderSVGPath {rect} at (65,165) size 55x50 [fill={[type=SOLID] [color=#FF0000]}] [x=0.00] [y=0.00] [width=2.00] [height=20.00]
          RenderSVGContainer {g} at (315,165) size 50x100 [transform={m=((1.00,1.00)(0.00,1.00)) t=(350.00,50.00)}]
            RenderSVGPath {rect} at (315,165) size 50x55 [fill={[type=SOLID] [color=#0000FF]}] [x=0.00] [y=0.00] [width=20.00] [height=2.00]
            RenderSVGPath {rect} at (315,165) size 5x55 [fill={[type=SOLID] [color=#FF0000]}] [x=0.00] [y=0.00] [width=2.00] [height=20.00]
        RenderSVGContainer {g} at (40,100) size 440x123 [transform={m=((2.50,0.00)(0.00,2.50)) t=(-560.00,0.00)}]
          RenderSVGText {text} at (240,24) size 77x22 contains 1 chunk(s)
            RenderSVGInlineText {#text} at (0,0) size 77x22
              chunk 1 text run 1 at (240.00,40.00) startOffset 0 endOffset 11 width 76.40: "skew x (45)"
          RenderSVGPath {rect} at (60,160) size 13x13 [fill={[type=SOLID] [color=#000000]}] [x=248.00] [y=48.00] [width=5.00] [height=5.00]
          RenderSVGPath {rect} at (110,160) size 13x13 [fill={[type=SOLID] [color=#0000FF]}] [x=268.00] [y=48.00] [width=5.00] [height=5.00]
          RenderSVGPath {rect} at (110,210) size 13x13 [fill={[type=SOLID] [color=#FF0000]}] [x=268.00] [y=68.00] [width=5.00] [height=5.00]
          RenderSVGText {text} at (340,24) size 77x22 contains 1 chunk(s)
            RenderSVGInlineText {#text} at (0,0) size 77x22
              chunk 1 text run 1 at (340.00,40.00) startOffset 0 endOffset 11 width 76.40: "skew y (45)"
          RenderSVGPath {rect} at (310,160) size 13x13 [fill={[type=SOLID] [color=#000000]}] [x=348.00] [y=48.00] [width=5.00] [height=5.00]
          RenderSVGPath {rect} at (360,210) size 13x13 [fill={[type=SOLID] [color=#0000FF]}] [x=368.00] [y=68.00] [width=5.00] [height=5.00]
          RenderSVGPath {rect} at (310,210) size 13x13 [fill={[type=SOLID] [color=#FF0000]}] [x=348.00] [y=68.00] [width=5.00] [height=5.00]
    RenderSVGText {text} at (10,301) size 270x53 contains 1 chunk(s)
      RenderSVGInlineText {#text} at (0,0) size 270x53
        chunk 1 text run 1 at (10.00,340.00) startOffset 0 endOffset 16 width 270.00: "$Revision: 1.6 $"
    RenderSVGPath {rect} at (0,0) size 480x360 [stroke={[type=SOLID] [color=#000000]}] [x=1.00] [y=1.00] [width=478.00] [height=358.00]
