layer at (0,0) size 480x360
  RenderView at (0,0) size 480x360
layer at (0,0) size 480x360
  RenderSVGRoot {svg} at (0,0) size 480x360
    RenderSVGContainer {g} at (20,10) size 440x290 [transform={m=((1.00,0.00)(0.00,1.00)) t=(15.00,-60.00)}]
      RenderSVGHiddenContainer {defs} at (0,0) size 0x0
        RenderSVGPath {path} at (15,0) size 150x90 [fill={[type=SOLID] [color=#00FFFF]}] [data="M 0 0 L 150 0 L 150 150 Z"]
        RenderSVGPath {path} at (15,0) size 150x90 [fill={[type=SOLID] [color=#FF00FF]}] [data="M 0 0 L 0 150 L 150 0 Z"]
        RenderSVGPath {path} at (15,0) size 150x90 [fill={[type=SOLID] [color=#00FFFF] [opacity=0.50]}] [data="M 0 0 L 150 0 L 150 150 Z"]
        RenderSVGPath {path} at (15,0) size 150x90 [fill={[type=SOLID] [color=#FF00FF] [opacity=0.50]}] [data="M 0 0 L 0 150 L 150 0 Z"]
        RenderSVGResourceFilter {filter} [id="over"] [filterUnits=objectBoundingBox] [primitiveUnits=userSpaceOnUse]
          [feComposite operation="OVER"]
            [feImage image-size="150x150"]
            [feImage image-size="150x150"]
        RenderSVGResourceFilter {filter} [id="over50"] [filterUnits=objectBoundingBox] [primitiveUnits=userSpaceOnUse]
          [feComposite operation="OVER"]
            [feImage image-size="150x150"]
            [feImage image-size="150x150"]
        RenderSVGResourceFilter {filter} [id="in"] [filterUnits=objectBoundingBox] [primitiveUnits=userSpaceOnUse]
          [feComposite operation="IN"]
            [feImage image-size="150x150"]
            [feImage image-size="150x150"]
        RenderSVGResourceFilter {filter} [id="in50"] [filterUnits=objectBoundingBox] [primitiveUnits=userSpaceOnUse]
          [feComposite operation="IN"]
            [feImage image-size="150x150"]
            [feImage image-size="150x150"]
        RenderSVGResourceFilter {filter} [id="out"] [filterUnits=objectBoundingBox] [primitiveUnits=userSpaceOnUse]
          [feComposite operation="OUT"]
            [feImage image-size="150x150"]
            [feImage image-size="150x150"]
        RenderSVGResourceFilter {filter} [id="out50"] [filterUnits=objectBoundingBox] [primitiveUnits=userSpaceOnUse]
          [feComposite operation="OUT"]
            [feImage image-size="150x150"]
            [feImage image-size="150x150"]
        RenderSVGResourceFilter {filter} [id="atop"] [filterUnits=objectBoundingBox] [primitiveUnits=userSpaceOnUse]
          [feComposite operation="ATOP"]
            [feImage image-size="150x150"]
            [feImage image-size="150x150"]
        RenderSVGResourceFilter {filter} [id="atop50"] [filterUnits=objectBoundingBox] [primitiveUnits=userSpaceOnUse]
          [feComposite operation="ATOP"]
            [feImage image-size="150x150"]
            [feImage image-size="150x150"]
        RenderSVGResourceFilter {filter} [id="xor"] [filterUnits=objectBoundingBox] [primitiveUnits=userSpaceOnUse]
          [feComposite operation="XOR"]
            [feImage image-size="150x150"]
            [feImage image-size="150x150"]
        RenderSVGResourceFilter {filter} [id="xor50"] [filterUnits=objectBoundingBox] [primitiveUnits=userSpaceOnUse]
          [feComposite operation="XOR"]
            [feImage image-size="150x150"]
            [feImage image-size="150x150"]
        RenderSVGResourceFilter {filter} [id="arithmetic"] [filterUnits=objectBoundingBox] [primitiveUnits=userSpaceOnUse]
          [feComposite operation="ARITHMETIC" k1="0.50" k2="0.50" k3="0.50" k4="0.50"]
            [feImage image-size="150x150"]
            [feImage image-size="150x150"]
        RenderSVGResourceFilter {filter} [id="arithmetic50"] [filterUnits=objectBoundingBox] [primitiveUnits=userSpaceOnUse]
          [feComposite operation="ARITHMETIC" k1="0.50" k2="0.50" k3="0.50" k4="0.50"]
            [feImage image-size="150x150"]
            [feImage image-size="150x150"]
      RenderSVGContainer {g} at (20,10) size 440x290 [transform={m=((0.40,0.00)(0.00,0.40)) t=(5.00,70.00)}]
        RenderSVGPath {rect} at (20,10) size 440x290 [stroke={[type=SOLID] [color=#0000FF]}] [x=1.00] [y=1.00] [width=1098.00] [height=723.00]
        RenderSVGText {text} at (100,17) size 655x76 contains 1 chunk(s)
          RenderSVGInlineText {#text} at (0,0) size 655x76
            chunk 1 text run 1 at (100.00,75.00) startOffset 0 endOffset 26 width 655.00: "on first Row : opacity 1.0"
        RenderSVGText {text} at (100,122) size 690x76 contains 1 chunk(s)
          RenderSVGInlineText {#text} at (0,0) size 690x76
            chunk 1 text run 1 at (100.00,180.00) startOffset 0 endOffset 25 width 690.00: "on second row opacity 0.5"
        RenderSVGContainer {g} at (26,102) size 60x168 [transform={m=((1.00,0.00)(0.00,1.00)) t=(15.00,230.00)}]
          RenderSVGPath {rect} at (26,102) size 60x60 [fill={[type=SOLID] [color=#000000]}] [x=0.00] [y=0.00] [width=150.00] [height=150.00]
            [filter="over"] RenderSVGResourceFilter {filter} at (0,0) size 150x150
          RenderSVGText {text} at (10,342) size 115x76 contains 1 chunk(s)
            RenderSVGInlineText {#text} at (0,0) size 115x76
              chunk 1 text run 1 at (10.00,400.00) startOffset 0 endOffset 4 width 115.00: "over"
        RenderSVGContainer {g} at (26,182) size 60x60 [transform={m=((1.00,0.00)(0.00,1.00)) t=(15.00,430.00)}]
          RenderSVGPath {rect} at (26,182) size 60x60 [fill={[type=SOLID] [color=#000000]}] [x=0.00] [y=0.00] [width=150.00] [height=150.00]
            [filter="over50"] RenderSVGResourceFilter {filter} at (0,0) size 150x150
        RenderSVGContainer {g} at (98,102) size 60x168 [transform={m=((1.00,0.00)(0.00,1.00)) t=(195.00,230.00)}]
          RenderSVGPath {rect} at (98,102) size 60x60 [fill={[type=SOLID] [color=#000000]}] [x=0.00] [y=0.00] [width=150.00] [height=150.00]
            [filter="in"] RenderSVGResourceFilter {filter} at (0,0) size 150x150
          RenderSVGText {text} at (10,342) size 45x76 contains 1 chunk(s)
            RenderSVGInlineText {#text} at (0,0) size 45x76
              chunk 1 text run 1 at (10.00,400.00) startOffset 0 endOffset 2 width 45.00: "in"
        RenderSVGContainer {g} at (98,182) size 60x60 [transform={m=((1.00,0.00)(0.00,1.00)) t=(195.00,430.00)}]
          RenderSVGPath {rect} at (98,182) size 60x60 [fill={[type=SOLID] [color=#000000]}] [x=0.00] [y=0.00] [width=150.00] [height=150.00]
            [filter="in50"] RenderSVGResourceFilter {filter} at (0,0) size 150x150
        RenderSVGContainer {g} at (170,102) size 60x168 [transform={m=((1.00,0.00)(0.00,1.00)) t=(375.00,230.00)}]
          RenderSVGPath {rect} at (170,102) size 60x60 [fill={[type=SOLID] [color=#000000]}] [x=0.00] [y=0.00] [width=150.00] [height=150.00]
            [filter="out"] RenderSVGResourceFilter {filter} at (0,0) size 150x150
          RenderSVGText {text} at (10,342) size 83x76 contains 1 chunk(s)
            RenderSVGInlineText {#text} at (0,0) size 83x76
              chunk 1 text run 1 at (10.00,400.00) startOffset 0 endOffset 3 width 82.50: "out"
        RenderSVGContainer {g} at (170,182) size 60x60 [transform={m=((1.00,0.00)(0.00,1.00)) t=(375.00,430.00)}]
          RenderSVGPath {rect} at (170,182) size 60x60 [fill={[type=SOLID] [color=#000000]}] [x=0.00] [y=0.00] [width=150.00] [height=150.00]
            [filter="out50"] RenderSVGResourceFilter {filter} at (0,0) size 150x150
        RenderSVGContainer {g} at (242,102) size 60x168 [transform={m=((1.00,0.00)(0.00,1.00)) t=(555.00,230.00)}]
          RenderSVGPath {rect} at (242,102) size 60x60 [fill={[type=SOLID] [color=#000000]}] [x=0.00] [y=0.00] [width=150.00] [height=150.00]
            [filter="atop"] RenderSVGResourceFilter {filter} at (0,0) size 150x150
          RenderSVGText {text} at (10,342) size 115x76 contains 1 chunk(s)
            RenderSVGInlineText {#text} at (0,0) size 115x76
              chunk 1 text run 1 at (10.00,400.00) startOffset 0 endOffset 4 width 115.00: "atop"
        RenderSVGContainer {g} at (242,182) size 60x60 [transform={m=((1.00,0.00)(0.00,1.00)) t=(555.00,430.00)}]
          RenderSVGPath {rect} at (242,182) size 60x60 [fill={[type=SOLID] [color=#000000]}] [x=0.00] [y=0.00] [width=150.00] [height=150.00]
            [filter="atop50"] RenderSVGResourceFilter {filter} at (0,0) size 150x150
        RenderSVGContainer {g} at (314,102) size 60x168 [transform={m=((1.00,0.00)(0.00,1.00)) t=(735.00,230.00)}]
          RenderSVGPath {rect} at (314,102) size 60x60 [fill={[type=SOLID] [color=#000000]}] [x=0.00] [y=0.00] [width=150.00] [height=150.00]
            [filter="xor"] RenderSVGResourceFilter {filter} at (0,0) size 150x150
          RenderSVGText {text} at (10,342) size 83x76 contains 1 chunk(s)
            RenderSVGInlineText {#text} at (0,0) size 83x76
              chunk 1 text run 1 at (10.00,400.00) startOffset 0 endOffset 3 width 82.50: "xor"
        RenderSVGContainer {g} at (314,182) size 60x60 [transform={m=((1.00,0.00)(0.00,1.00)) t=(735.00,430.00)}]
          RenderSVGPath {rect} at (314,182) size 60x60 [fill={[type=SOLID] [color=#000000]}] [x=0.00] [y=0.00] [width=150.00] [height=150.00]
            [filter="xor50"] RenderSVGResourceFilter {filter} at (0,0) size 150x150
        RenderSVGContainer {g} at (376,102) size 70x196 [transform={m=((1.00,0.00)(0.00,1.00)) t=(915.00,230.00)}]
          RenderSVGPath {rect} at (386,102) size 60x60 [fill={[type=SOLID] [color=#000000]}] [x=0.00] [y=0.00] [width=150.00] [height=150.00]
            [filter="arithmetic"] RenderSVGResourceFilter {filter} at (0,0) size 150x150
          RenderSVGText {text} at (-25,342) size 135x76 contains 1 chunk(s)
            RenderSVGInlineText {#text} at (0,0) size 135x76
              chunk 1 text run 1 at (-25.00,400.00) startOffset 0 endOffset 6 width 135.00: "arith-"
          RenderSVGText {text} at (-25,412) size 143x76 contains 1 chunk(s)
            RenderSVGInlineText {#text} at (0,0) size 143x76
              chunk 1 text run 1 at (-25.00,470.00) startOffset 0 endOffset 5 width 142.50: "metic"
        RenderSVGContainer {g} at (386,182) size 60x60 [transform={m=((1.00,0.00)(0.00,1.00)) t=(915.00,430.00)}]
          RenderSVGPath {rect} at (386,182) size 60x60 [fill={[type=SOLID] [color=#000000]}] [x=0.00] [y=0.00] [width=150.00] [height=150.00]
            [filter="arithmetic50"] RenderSVGResourceFilter {filter} at (0,0) size 150x150
    RenderSVGText {text} at (10,301) size 270x53 contains 1 chunk(s)
      RenderSVGInlineText {#text} at (0,0) size 270x53
        chunk 1 text run 1 at (10.00,340.00) startOffset 0 endOffset 16 width 270.00: "$Revision: 1.5 $"
    RenderSVGPath {rect} at (0,0) size 480x360 [stroke={[type=SOLID] [color=#000000]}] [x=1.00] [y=1.00] [width=478.00] [height=358.00]
