layer at (0,0) size 480x360
  RenderView at (0,0) size 480x360
layer at (0,0) size 480x360
  RenderSVGRoot {svg} at (0,0) size 480x360
    RenderSVGContainer {g} at (0,0) size 181x277
      RenderSVGPath {rect} at (0,45) size 51x82 [stroke={[type=SOLID] [color=#000000]}] [fill={[type=SOLID] [color=#FF0000]}] [x=0.00] [y=46.00] [width=50.00] [height=80.00]
      RenderSVGPath {rect} at (129,0) size 52x81 [stroke={[type=SOLID] [color=#000000]}] [fill={[type=SOLID] [color=#FF0000]}] [x=130.00] [y=0.00] [width=50.00] [height=80.00]
      RenderSVGPath {rect} at (0,0) size 0x0 [stroke={[type=SOLID] [color=#000000]}] [fill={[type=SOLID] [color=#FF0000]}] [x=250.00] [y=46.00] [width=0.00] [height=80.00]
      RenderSVGPath {rect} at (0,0) size 0x0 [stroke={[type=SOLID] [color=#000000]}] [fill={[type=SOLID] [color=#FF0000]}] [x=350.00] [y=46.00] [width=50.00] [height=0.00]
      RenderSVGPath {rect} at (29,195) size 52x82 [stroke={[type=SOLID] [color=#000000]}] [fill={[type=SOLID] [color=#FF0000]}] [x=30.00] [y=196.00] [width=50.00] [height=80.00]
      RenderSVGPath {rect} at (129,195) size 52x82 [stroke={[type=SOLID] [color=#000000]}] [fill={[type=SOLID] [color=#FF0000]}] [x=130.00] [y=196.00] [width=50.00] [height=80.00]
    RenderSVGText {text} at (10,301) size 270x53 contains 1 chunk(s)
      RenderSVGInlineText {#text} at (0,0) size 270x53
        chunk 1 text run 1 at (10.00,340.00) startOffset 0 endOffset 16 width 270.00: "$Revision: 1.4 $"
    RenderSVGPath {rect} at (0,0) size 480x360 [stroke={[type=SOLID] [color=#000000]}] [x=1.00] [y=1.00] [width=478.00] [height=358.00]
