layer at (0,0) size 480x360
  RenderView at (0,0) size 480x360
layer at (0,0) size 480x360
  RenderSVGRoot {svg} at (0,0) size 480x360
    RenderSVGText {text} at (10,304) size 261x46 contains 1 chunk(s)
      RenderSVGInlineText {#text} at (0,0) size 261x46
        chunk 1 text run 1 at (10.00,340.00) startOffset 0 endOffset 16 width 261.00: "$Revision: 1.7 $"
    RenderSVGPath {rect} at (0,0) size 480x360 [stroke={[type=SOLID] [color=#000000]}] [x=1.00] [y=1.00] [width=478.00] [height=358.00]
    RenderSVGText {text} at (224,13) size 32x22 contains 1 chunk(s)
      RenderSVGInlineText {#text} at (0,0) size 32x22
        chunk 1 (middle anchor) text run 1 at (224.00,30.00) startOffset 0 endOffset 3 width 32.00: "max"
    RenderSVGText {text} at (197,173) size 86x22 contains 1 chunk(s)
      RenderSVGInlineText {#text} at (0,0) size 86x22
        chunk 1 (middle anchor) text run 1 at (197.00,190.00) startOffset 0 endOffset 9 width 86.00: "min & max"
    RenderSVGContainer {g} at (74,42) size 283x236 [transform={m=((1.00,0.00)(0.00,1.00)) t=(100.00,30.00)}]
      RenderSVGContainer {g} at (74,62) size 146x216 [transform={m=((1.00,0.00)(0.00,1.00)) t=(120.00,45.00)}]
        RenderSVGText {text} at (-87,-13) size 87x16 contains 1 chunk(s)
          RenderSVGInlineText {#text} at (0,0) size 87x16
            chunk 1 (end anchor) text run 1 at (-87.00,0.00) startOffset 0 endOffset 14 width 87.00: "no max / media"
        RenderSVGText {text} at (-103,12) size 103x16 contains 1 chunk(s)
          RenderSVGInlineText {#text} at (0,0) size 103x16
            chunk 1 (end anchor) text run 1 at (-103.00,25.00) startOffset 0 endOffset 18 width 103.00: "invalid max values"
        RenderSVGText {text} at (-96,37) size 96x16 contains 1 chunk(s)
          RenderSVGInlineText {#text} at (0,0) size 96x16
            chunk 1 (end anchor) text run 1 at (-96.00,50.00) startOffset 0 endOffset 16 width 96.00: "max < active dur"
        RenderSVGText {text} at (-96,62) size 96x16 contains 1 chunk(s)
          RenderSVGInlineText {#text} at (0,0) size 96x16
            chunk 1 (end anchor) text run 1 at (-96.00,75.00) startOffset 0 endOffset 16 width 96.00: "max > active dur"
        RenderSVGText {text} at (-61,137) size 61x16 contains 1 chunk(s)
          RenderSVGInlineText {#text} at (0,0) size 61x16
            chunk 1 (end anchor) text run 1 at (-61.00,150.00) startOffset 0 endOffset 9 width 61.00: "min < max"
        RenderSVGText {text} at (-61,162) size 61x16 contains 1 chunk(s)
          RenderSVGInlineText {#text} at (0,0) size 61x16
            chunk 1 (end anchor) text run 1 at (-61.00,175.00) startOffset 0 endOffset 9 width 61.00: "min = max"
        RenderSVGText {text} at (-146,187) size 146x16 contains 1 chunk(s)
          RenderSVGInlineText {#text} at (0,0) size 146x16
            chunk 1 (end anchor) text run 1 at (-146.00,200.00) startOffset 0 endOffset 24 width 146.00: "min > max (both ignored)"
      RenderSVGContainer {g} at (237,42) size 109x16 [transform={m=((1.00,0.00)(0.00,1.00)) t=(150.00,25.00)}]
        RenderSVGText {text} at (-13,-13) size 26x16 contains 1 chunk(s)
          RenderSVGInlineText {#text} at (0,0) size 26x16
            chunk 1 (middle anchor) text run 1 at (-12.50,0.00) startOffset 0 endOffset 4 width 25.00: "> 5s"
        RenderSVGText {text} at (64,-13) size 32x16 contains 1 chunk(s)
          RenderSVGInlineText {#text} at (0,0) size 32x16
            chunk 1 (middle anchor) text run 1 at (64.50,0.00) startOffset 0 endOffset 5 width 31.00: "0s-5s"
      RenderSVGContainer {g} at (243,63) size 114x214 [transform={m=((1.00,0.00)(0.00,1.00)) t=(150.00,40.00)}]
        RenderSVGHiddenContainer {defs} at (0,0) size 0x0
          RenderSVGPath {rect} at (243,63) size 14x14 [stroke={[type=SOLID] [color=#000000]}] [fill={[type=SOLID] [color=#CCCCCC]}] [x=-6.00] [y=-6.00] [width=12.00] [height=12.00]
        RenderSVGContainer {g} at (243,63) size 114x14
          RenderSVGContainer {use} at (243,63) size 14x14
            RenderSVGContainer {g} at (243,63) size 14x14
              RenderSVGPath {rect} at (243,63) size 14x14 [stroke={[type=SOLID] [color=#000000]}] [fill={[type=SOLID] [color=#CCCCCC]}] [x=-6.00] [y=-6.00] [width=12.00] [height=12.00]
          RenderSVGContainer {use} at (323,63) size 14x14
            RenderSVGContainer {g} at (323,63) size 14x14 [transform={m=((1.00,0.00)(0.00,1.00)) t=(80.00,0.00)}]
              RenderSVGPath {rect} at (323,63) size 14x14 [stroke={[type=SOLID] [color=#000000]}] [fill={[type=SOLID] [color=#CCCCCC]}] [x=-6.00] [y=-6.00] [width=12.00] [height=12.00]
          RenderSVGPath {rect} at (323,63) size 14x14 [stroke={[type=SOLID] [color=#000000]}] [fill={[type=SOLID] [color=#CC0066]}] [x=74.00] [y=-6.00] [width=12.00] [height=12.00]
          RenderSVGContainer {g} at (263,63) size 94x14 [transform={m=((1.00,0.00)(0.00,1.00)) t=(20.00,0.00)}]
            RenderSVGContainer {use} at (263,63) size 14x14
              RenderSVGContainer {g} at (263,63) size 14x14
                RenderSVGPath {rect} at (263,63) size 14x14 [stroke={[type=SOLID] [color=#000000]}] [fill={[type=SOLID] [color=#CCCCCC]}] [x=-6.00] [y=-6.00] [width=12.00] [height=12.00]
            RenderSVGContainer {use} at (343,63) size 14x14
              RenderSVGContainer {g} at (343,63) size 14x14 [transform={m=((1.00,0.00)(0.00,1.00)) t=(80.00,0.00)}]
                RenderSVGPath {rect} at (343,63) size 14x14 [stroke={[type=SOLID] [color=#000000]}] [fill={[type=SOLID] [color=#CCCCCC]}] [x=-6.00] [y=-6.00] [width=12.00] [height=12.00]
            RenderSVGPath {rect} at (343,63) size 14x14 [stroke={[type=SOLID] [color=#000000]}] [fill={[type=SOLID] [color=#CC0066]}] [x=74.00] [y=-6.00] [width=12.00] [height=12.00]
        RenderSVGContainer {g} at (243,88) size 114x14 [transform={m=((1.00,0.00)(0.00,1.00)) t=(0.00,25.00)}]
          RenderSVGContainer {use} at (243,88) size 14x14
            RenderSVGContainer {g} at (243,88) size 14x14
              RenderSVGPath {rect} at (243,88) size 14x14 [stroke={[type=SOLID] [color=#000000]}] [fill={[type=SOLID] [color=#CCCCCC]}] [x=-6.00] [y=-6.00] [width=12.00] [height=12.00]
          RenderSVGContainer {use} at (323,88) size 14x14
            RenderSVGContainer {g} at (323,88) size 14x14 [transform={m=((1.00,0.00)(0.00,1.00)) t=(80.00,0.00)}]
              RenderSVGPath {rect} at (323,88) size 14x14 [stroke={[type=SOLID] [color=#000000]}] [fill={[type=SOLID] [color=#CCCCCC]}] [x=-6.00] [y=-6.00] [width=12.00] [height=12.00]
          RenderSVGPath {rect} at (323,88) size 14x14 [stroke={[type=SOLID] [color=#000000]}] [fill={[type=SOLID] [color=#CC0066]}] [x=74.00] [y=-6.00] [width=12.00] [height=12.00]
          RenderSVGContainer {g} at (263,88) size 94x14 [transform={m=((1.00,0.00)(0.00,1.00)) t=(20.00,0.00)}]
            RenderSVGContainer {use} at (263,88) size 14x14
              RenderSVGContainer {g} at (263,88) size 14x14
                RenderSVGPath {rect} at (263,88) size 14x14 [stroke={[type=SOLID] [color=#000000]}] [fill={[type=SOLID] [color=#CCCCCC]}] [x=-6.00] [y=-6.00] [width=12.00] [height=12.00]
            RenderSVGContainer {use} at (343,88) size 14x14
              RenderSVGContainer {g} at (343,88) size 14x14 [transform={m=((1.00,0.00)(0.00,1.00)) t=(80.00,0.00)}]
                RenderSVGPath {rect} at (343,88) size 14x14 [stroke={[type=SOLID] [color=#000000]}] [fill={[type=SOLID] [color=#CCCCCC]}] [x=-6.00] [y=-6.00] [width=12.00] [height=12.00]
            RenderSVGPath {rect} at (343,88) size 14x14 [stroke={[type=SOLID] [color=#000000]}] [fill={[type=SOLID] [color=#CC0066]}] [x=74.00] [y=-6.00] [width=12.00] [height=12.00]
        RenderSVGContainer {g} at (243,113) size 94x14 [transform={m=((1.00,0.00)(0.00,1.00)) t=(0.00,50.00)}]
          RenderSVGContainer {use} at (243,113) size 14x14
            RenderSVGContainer {g} at (243,113) size 14x14
              RenderSVGPath {rect} at (243,113) size 14x14 [stroke={[type=SOLID] [color=#000000]}] [fill={[type=SOLID] [color=#CCCCCC]}] [x=-6.00] [y=-6.00] [width=12.00] [height=12.00]
          RenderSVGContainer {use} at (323,113) size 14x14
            RenderSVGContainer {g} at (323,113) size 14x14 [transform={m=((1.00,0.00)(0.00,1.00)) t=(80.00,0.00)}]
              RenderSVGPath {rect} at (323,113) size 14x14 [stroke={[type=SOLID] [color=#000000]}] [fill={[type=SOLID] [color=#CCCCCC]}] [x=-6.00] [y=-6.00] [width=12.00] [height=12.00]
          RenderSVGPath {rect} at (323,113) size 14x14 [stroke={[type=SOLID] [color=#000000]}] [fill={[type=SOLID] [color=#CC0066]}] [x=74.00] [y=-6.00] [width=12.00] [height=12.00]
        RenderSVGContainer {g} at (243,138) size 94x14 [transform={m=((1.00,0.00)(0.00,1.00)) t=(0.00,75.00)}]
          RenderSVGContainer {use} at (243,138) size 14x14
            RenderSVGContainer {g} at (243,138) size 14x14
              RenderSVGPath {rect} at (243,138) size 14x14 [stroke={[type=SOLID] [color=#000000]}] [fill={[type=SOLID] [color=#CCCCCC]}] [x=-6.00] [y=-6.00] [width=12.00] [height=12.00]
          RenderSVGContainer {use} at (323,138) size 14x14
            RenderSVGContainer {g} at (323,138) size 14x14 [transform={m=((1.00,0.00)(0.00,1.00)) t=(80.00,0.00)}]
              RenderSVGPath {rect} at (323,138) size 14x14 [stroke={[type=SOLID] [color=#000000]}] [fill={[type=SOLID] [color=#CCCCCC]}] [x=-6.00] [y=-6.00] [width=12.00] [height=12.00]
          RenderSVGPath {rect} at (323,138) size 14x14 [stroke={[type=SOLID] [color=#000000]}] [fill={[type=SOLID] [color=#CC0066]}] [x=74.00] [y=-6.00] [width=12.00] [height=12.00]
        RenderSVGContainer {g} at (243,213) size 94x14 [transform={m=((1.00,0.00)(0.00,1.00)) t=(0.00,150.00)}]
          RenderSVGContainer {use} at (243,213) size 14x14
            RenderSVGContainer {g} at (243,213) size 14x14
              RenderSVGPath {rect} at (243,213) size 14x14 [stroke={[type=SOLID] [color=#000000]}] [fill={[type=SOLID] [color=#CCCCCC]}] [x=-6.00] [y=-6.00] [width=12.00] [height=12.00]
          RenderSVGContainer {use} at (323,213) size 14x14
            RenderSVGContainer {g} at (323,213) size 14x14 [transform={m=((1.00,0.00)(0.00,1.00)) t=(80.00,0.00)}]
              RenderSVGPath {rect} at (323,213) size 14x14 [stroke={[type=SOLID] [color=#000000]}] [fill={[type=SOLID] [color=#CCCCCC]}] [x=-6.00] [y=-6.00] [width=12.00] [height=12.00]
          RenderSVGPath {rect} at (323,213) size 14x14 [stroke={[type=SOLID] [color=#000000]}] [fill={[type=SOLID] [color=#CC0066]}] [x=74.00] [y=-6.00] [width=12.00] [height=12.00]
        RenderSVGContainer {g} at (243,238) size 94x14 [transform={m=((1.00,0.00)(0.00,1.00)) t=(0.00,175.00)}]
          RenderSVGContainer {use} at (243,238) size 14x14
            RenderSVGContainer {g} at (243,238) size 14x14
              RenderSVGPath {rect} at (243,238) size 14x14 [stroke={[type=SOLID] [color=#000000]}] [fill={[type=SOLID] [color=#CCCCCC]}] [x=-6.00] [y=-6.00] [width=12.00] [height=12.00]
          RenderSVGContainer {use} at (323,238) size 14x14
            RenderSVGContainer {g} at (323,238) size 14x14 [transform={m=((1.00,0.00)(0.00,1.00)) t=(80.00,0.00)}]
              RenderSVGPath {rect} at (323,238) size 14x14 [stroke={[type=SOLID] [color=#000000]}] [fill={[type=SOLID] [color=#CCCCCC]}] [x=-6.00] [y=-6.00] [width=12.00] [height=12.00]
          RenderSVGPath {rect} at (323,238) size 14x14 [stroke={[type=SOLID] [color=#000000]}] [fill={[type=SOLID] [color=#CC0066]}] [x=74.00] [y=-6.00] [width=12.00] [height=12.00]
        RenderSVGContainer {g} at (243,263) size 94x14 [transform={m=((1.00,0.00)(0.00,1.00)) t=(0.00,200.00)}]
          RenderSVGContainer {use} at (243,263) size 14x14
            RenderSVGContainer {g} at (243,263) size 14x14
              RenderSVGPath {rect} at (243,263) size 14x14 [stroke={[type=SOLID] [color=#000000]}] [fill={[type=SOLID] [color=#CCCCCC]}] [x=-6.00] [y=-6.00] [width=12.00] [height=12.00]
          RenderSVGContainer {use} at (323,263) size 14x14
            RenderSVGContainer {g} at (323,263) size 14x14 [transform={m=((1.00,0.00)(0.00,1.00)) t=(80.00,0.00)}]
              RenderSVGPath {rect} at (323,263) size 14x14 [stroke={[type=SOLID] [color=#000000]}] [fill={[type=SOLID] [color=#CCCCCC]}] [x=-6.00] [y=-6.00] [width=12.00] [height=12.00]
          RenderSVGPath {rect} at (323,263) size 14x14 [stroke={[type=SOLID] [color=#000000]}] [fill={[type=SOLID] [color=#CC0066]}] [x=74.00] [y=-6.00] [width=12.00] [height=12.00]
